<svg width="84" height="80" viewBox="0 0 84 80" fill="none" xmlns="http://www.w3.org/2000/svg">
<g clip-path="url(#clip0)" filter="url(#filter0_d)">
<path d="M67.7395 39.8855C71.2876 37.1712 73.4874 32.6712 72.9907 27.7426C72.352 21.5283 67.3847 16.4569 61.211 15.7426C53.1214 14.8141 46.3091 21.1712 46.3091 29.1712C46.3091 33.5283 48.367 37.4569 51.6312 39.8855C50.8506 40.2426 50.0701 40.5998 49.3604 41.0998C48.5089 40.314 47.5864 39.7426 46.522 39.2426C47.0897 41.4569 48.0831 43.6712 49.6443 45.2426C50.4958 46.0998 51.6312 46.5998 52.7666 46.9569C52.6247 46.1712 52.3408 45.3855 51.986 44.6712C54.2568 43.3855 56.8824 42.5998 59.7208 42.5998C68.3782 42.5998 75.4034 49.6712 75.4034 58.3855V67.3855H54.2568C54.1149 66.3855 54.1858 71.8855 54.1858 71.8855H79.7321V58.3855C79.7321 50.1712 74.7647 43.0283 67.7395 39.8855ZM59.5789 38.1712C54.6116 38.1712 50.6377 34.0998 50.6377 29.1712C50.6377 24.1712 54.6826 20.1712 59.5789 20.1712C64.5462 20.1712 68.5201 24.2426 68.5201 29.1712C68.5911 34.0998 64.5462 38.1712 59.5789 38.1712Z" fill="white"/>
<path d="M29.4753 67.901H8.47059V54.401C8.47059 45.6867 15.4958 38.6153 24.1531 38.6153C27.8431 38.6153 31.3203 39.901 33.9458 42.1153C33.2362 42.901 32.5976 43.7581 32.1008 44.6867C33.0233 44.3295 33.8749 43.9724 34.6555 43.6153C36.2876 42.8295 39.197 41.2581 39.197 39.1153C38.7003 39.2581 38.2036 39.401 37.7778 39.6153C36.1457 38.1153 34.3007 36.901 32.3137 35.9724C35.8618 33.2581 38.0616 28.7581 37.5649 23.8295C36.9262 17.6152 31.9589 12.5438 25.7852 11.8295C17.6956 10.901 10.8833 17.2581 10.8833 25.2581C10.8833 29.6153 12.9412 33.5438 16.2054 35.9724C8.96732 39.0438 4 46.1867 4 54.401V72.401H29.2624C29.2624 72.401 29.6172 67.1867 29.4753 67.901ZM15.141 25.1867C15.141 20.1867 19.1858 16.1867 24.0822 16.1867C29.0495 16.1867 33.0233 20.2581 33.0233 25.1867C33.0233 30.1867 28.9785 34.1867 24.0822 34.1867C19.1858 34.1867 15.141 30.1153 15.141 25.1867Z" fill="white"/>
<path d="M49.5574 58.6429C49.3445 58.5 49.2026 58.4286 48.9897 58.2857C48.9897 58.2857 48.9897 58.2857 48.9188 58.2857C51.4734 56.2143 53.1055 53.0715 53.1055 49.5715C53.1055 47.9286 52.7507 46.2857 52.112 44.8572C51.4024 43.3572 50.409 42.0715 49.2026 41C49.1316 40.9286 49.0607 40.8572 48.9897 40.7857C48.7768 40.6429 48.5639 40.4286 48.2801 40.2857L48.2091 40.2143C46.4351 39 44.3062 38.3572 42.0355 38.3572C35.8618 38.3572 30.8945 43.3572 30.8945 49.5715C30.8945 50.6429 31.0364 51.7143 31.3202 52.7143C31.3202 52.8572 31.3912 52.9286 31.3912 53.0715C31.4622 53.2858 31.5331 53.5 31.6041 53.7143C31.6751 53.9286 31.746 54.1429 31.817 54.2857C31.8879 54.4286 31.9589 54.5715 32.0299 54.7143C32.1718 55 32.3137 55.2857 32.4556 55.5C32.4556 55.5715 32.5266 55.5715 32.5266 55.6429C33.1653 56.6429 33.9458 57.5715 34.9393 58.3572C34.7264 58.5 34.5845 58.5715 34.3716 58.7143C30.7526 61.2143 28.7656 65.4286 28.7656 69.8572V72.0715H33.3072V69.7857C33.3072 65.9286 35.7199 62.3572 39.4099 61.2143C40.1195 61 40.8291 60.8572 41.5387 60.8572C41.6807 60.8572 41.8226 60.8572 41.9645 60.8572C42.1064 60.8572 42.3193 60.8572 42.4612 60.8572C43.1709 60.9286 43.8805 61 44.5191 61.2143C48.2091 62.3572 50.6218 65.9286 50.6218 69.7857V72.0715H55.1634V69.8572C55.2343 65.3572 53.1765 61.1429 49.5574 58.6429ZM41.9645 56.2858C38.2745 56.2858 35.2231 53.2858 35.2231 49.5C35.2231 45.7858 38.2035 42.7143 41.9645 42.7143C45.6545 42.7143 48.7059 45.7143 48.7059 49.5C48.7059 53.2143 45.7255 56.2858 41.9645 56.2858Z" fill="#C58511"/>
</g>
<defs>
<filter id="filter0_d" x="0" y="0" width="84" height="80" filterUnits="userSpaceOnUse" color-interpolation-filters="sRGB">
<feFlood flood-opacity="0" result="BackgroundImageFix"/>
<feColorMatrix in="SourceAlpha" type="matrix" values="0 0 0 0 0 0 0 0 0 0 0 0 0 0 0 0 0 0 127 0" result="hardAlpha"/>
<feOffset dy="4"/>
<feGaussianBlur stdDeviation="2"/>
<feComposite in2="hardAlpha" operator="out"/>
<feColorMatrix type="matrix" values="0 0 0 0 0 0 0 0 0 0 0 0 0 0 0 0 0 0 0.25 0"/>
<feBlend mode="normal" in2="BackgroundImageFix" result="effect1_dropShadow"/>
<feBlend mode="normal" in="SourceGraphic" in2="effect1_dropShadow" result="shape"/>
</filter>
<clipPath id="clip0">
<rect width="76" height="72" fill="white" transform="translate(4)"/>
</clipPath>
</defs>
</svg>
