<svg width="128" height="146" viewBox="0 0 128 146" fill="none" xmlns="http://www.w3.org/2000/svg">
<g clip-path="url(#clip0)">
<path d="M46.5786 72.8184C45.1115 72.8184 44.0112 73.9216 44.0112 75.3927V112.904H49.1459V75.3927C49.1459 73.9216 48.0456 72.8184 46.5786 72.8184Z" fill="#C58511"/>
<path d="M81.4213 72.8184C79.9543 72.8184 78.854 73.9216 78.854 75.3927V112.904H83.9887V75.3927C83.9887 73.9216 82.8884 72.8184 81.4213 72.8184Z" fill="#C58511"/>
<path d="M107.461 0H20.5387C11.3696 0 4.03437 5.51637 1.10028 14.7103C-1.1003 21.33 -9.27038e-06 29.0529 3.66761 34.937C6.60171 39.7179 11.3696 43.0277 16.5043 43.7632L17.9713 44.131V50.7506C17.9713 55.5315 20.9054 59.9446 25.6733 61.4156L26.7736 61.7834V123.567L25.6733 123.935C21.2722 125.406 17.9713 129.819 17.9713 134.599V143.426C17.9713 144.897 19.0716 146 20.5387 146H107.828C109.295 146 110.395 144.897 110.395 143.426V134.599C110.395 129.819 107.461 125.406 102.693 123.935L101.593 123.567V61.7834L102.693 61.4156C107.095 59.9446 110.395 55.5315 110.395 50.7506V44.131L111.862 43.7632C116.997 42.6599 121.398 39.7179 124.332 34.5693C128 28.6851 128.734 21.33 126.533 14.7103C123.966 5.51637 116.63 0 107.461 0ZM105.261 134.599V140.851H22.7392V134.599C22.7392 131.29 25.6733 128.348 28.9742 128.348H99.0258C102.327 128.348 105.261 131.29 105.261 134.599ZM31.5415 123.199V62.1511H96.4584V123.567H31.5415V123.199ZM105.261 50.7506C105.261 54.0605 102.327 57.0025 99.0258 57.0025H28.9742C25.6733 57.0025 22.7392 54.0605 22.7392 50.7506V44.4987H105.261V50.7506ZM31.9083 39.3501L34.1089 36.4081C35.5759 34.2015 36.6762 31.2594 36.6762 28.6851V26.8463H90.5902V28.6851C90.5902 31.2594 91.6905 34.2015 93.5243 36.4081L95.7249 39.3501H31.9083ZM119.198 33.0982C116.63 36.7758 112.596 38.6146 108.562 38.6146C102.693 38.6146 98.2923 34.5693 96.8252 30.8917C95.7249 27.9496 96.0917 25.3753 97.9255 23.5365C99.0258 22.4332 101.593 21.6977 103.794 22.4332C105.261 22.801 105.994 23.9043 106.361 25.3753C106.361 26.1108 107.095 26.4786 107.461 26.8463C108.195 27.2141 108.562 27.2141 109.295 27.2141C110.762 26.8463 111.496 25.3753 111.129 24.272C110.395 20.9622 108.195 18.3879 104.894 17.6524C101.226 16.5491 96.8252 17.6524 93.8911 20.2267C93.5243 20.5945 93.1576 20.9622 92.7908 21.33V22.0655H35.2092L34.4756 21.33C34.1089 20.9622 33.7421 20.2267 33.3754 19.8589C30.808 17.2846 26.4069 16.1814 22.3725 17.2846C19.4384 18.3879 17.2378 20.9622 16.5043 24.272C16.1375 25.7431 16.8711 26.8463 18.3381 27.2141C19.8051 27.5819 20.9054 26.8463 21.2722 25.3753C21.639 23.9043 22.3725 22.801 23.8395 22.4332C26.0401 21.6977 28.6074 22.4332 29.7077 23.5365C31.5415 25.3753 31.9083 27.9496 30.808 30.8917C29.341 34.937 24.5731 38.6146 19.0716 38.6146C15.0372 38.9824 11.3696 36.7758 8.80228 33.0982C5.13466 28.6851 4.03437 21.6977 5.86819 16.1814C8.06876 9.19395 13.5702 5.14861 20.1719 5.14861H107.095C114.063 5.14861 119.198 9.19395 121.398 16.1814C123.599 22.0655 122.499 28.6851 119.198 33.0982Z" fill="white"/>
<path d="M64.1836 72.8184C62.7165 72.8184 61.6162 73.9216 61.6162 75.3927V112.904H66.7509V75.3927C66.7509 73.9216 65.6506 72.8184 64.1836 72.8184Z" fill="#C58511"/>
</g>
<defs>
<clipPath id="clip0">
<rect width="128" height="146" fill="white"/>
</clipPath>
</defs>
</svg>
