<svg width="137" height="239" viewBox="0 0 137 239" fill="none" xmlns="http://www.w3.org/2000/svg">
<path d="M130.896 182.304C129.36 179.727 129.359 179.727 129.359 179.727L129.358 179.728L129.352 179.732L129.329 179.745L129.238 179.8L128.882 180.012C128.569 180.198 128.11 180.471 127.524 180.819C126.353 181.515 124.674 182.512 122.647 183.713C118.591 186.114 113.143 189.33 107.567 192.591C101.989 195.854 96.2938 199.155 91.7408 201.729C89.4628 203.017 87.4847 204.115 85.9564 204.932C85.1914 205.341 84.5541 205.672 84.0563 205.918C83.8076 206.041 83.605 206.137 83.4462 206.209C83.3673 206.244 83.3048 206.271 83.2571 206.291C83.2427 206.297 83.2303 206.302 83.2199 206.306C80.017 207.281 76.7618 207.868 73.4336 207.868C70.1335 207.868 66.7543 207.379 63.6627 206.313L63.6271 206.3L63.5932 206.29C63.5932 206.29 63.5598 206.278 63.4838 206.247C63.4017 206.214 63.2922 206.167 63.152 206.103C62.8706 205.975 62.5061 205.799 62.0561 205.572C61.1572 205.118 59.9813 204.494 58.5606 203.717C55.7224 202.165 51.9755 200.041 47.6458 197.542C38.9902 192.545 28.0582 186.075 17.5184 179.733L17.4875 179.715L17.4562 179.697C14.6931 178.124 13 175.161 13 171.989V112.746C13 109.594 14.6805 106.593 17.5106 104.875L17.5249 104.866L17.6152 104.813L17.9683 104.605C18.2779 104.423 18.7325 104.155 19.3123 103.814C20.4719 103.132 22.1324 102.157 24.1355 100.982C28.1418 98.6313 33.5173 95.4843 38.9957 92.2964C44.4756 89.1076 50.0518 85.8817 54.4619 83.3723C56.6682 82.1169 58.5727 81.0464 60.0234 80.2514C60.7497 79.8534 61.3506 79.5308 61.813 79.2911C62.0442 79.1712 62.2311 79.0771 62.3756 79.0071C62.4475 78.9723 62.5034 78.9461 62.5452 78.9272C62.5758 78.9133 62.5931 78.9059 62.5991 78.9034C65.9069 77.6111 69.635 77 73.4336 77C77.2398 77 80.9357 77.6134 84.199 79.007L84.2704 79.0375L84.341 79.0634C84.3371 79.062 84.3679 79.0737 84.4453 79.1084C84.5248 79.1441 84.6309 79.1938 84.7666 79.26C85.0386 79.3928 85.3929 79.5738 85.8306 79.8045C86.7047 80.2654 87.8582 80.8963 89.2544 81.6756C92.0439 83.2327 95.7482 85.3518 100.015 87.8206C108.547 92.7563 119.287 99.0654 129.371 105.015L129.391 105.027L129.411 105.038C132.174 106.612 133.867 109.574 133.867 112.746V171.989C133.867 175.161 132.174 178.124 129.411 179.697L129.385 179.712L129.36 179.727L130.896 182.304Z" fill="#02395E" stroke="#C58511" stroke-width="6"/>
<path d="M17.9812 201C16.815 201 15.6489 201.183 14.5956 201.587C13.6552 201.954 1.69279 208.849 1.69279 208.849C0.639498 209.473 0 210.573 0 211.747V228.18C0 229.353 0.639498 230.454 1.69279 231.041C7.67398 234.562 14.1066 238.23 14.9342 238.486C15.9122 238.817 16.9655 238.963 17.9812 238.963C19.0345 238.963 20.0502 238.78 21.0282 238.486C22.1944 238.083 34.2696 231.041 34.2696 231.041C35.3229 230.454 35.9624 229.353 35.9624 228.18V211.747C35.9624 210.573 35.3229 209.473 34.2696 208.886C28.5517 205.585 22.0815 201.88 21.3668 201.624C20.3135 201.183 19.1473 201 17.9812 201Z" fill="#C58511"/>
<path d="M118.1 93.9C117.2 94.2 116.5 94.3 116.5 94.3C116.5 94.3 116.9 94.6 117.5 95C118.4 95.7 119.7 96.9 120.2 98.3C120.9 100.6 120.4 103.5 119.6 103.9C119.3 104.1 118.8 104.3 118.1 104.8C117.1 105.5 115.6 106.8 113.7 109.5C113 110.4 110.2 115.3 107.6 120C105.4 124 103.4 128 102.7 129.2C102.1 130.2 101.5 131.3 100.8 132.3C97.2 138 92.2 143.6 89.2 146.9C87.9 148.3 86.7 149.6 85.7 150.9C83.8 153.2 82.4 155.3 81.5 157.8C80.6 160.4 78.4 170.4 76 174.6C73.4 179.2 63.4 181.1 52.9 178.2C42.3 175.3 42 163.5 42 163.5L44.9 155.2C44.9 155.2 48.5 141.4 50.7 137.9C52.8 134.4 53 129.1 52.9 124.4C52.8 119.8 50.5 110.5 49 105.3C47.5 100.2 48.1 98.4 48.5 95.3C48.9 92.2 49.7 84.9 49.6 80.4C49.5 75.9 49.9 74.8 51 72.5C51.2 72 51.5 71.6 51.7 71.2C52.1 70.5 52.2 69.3 52.6 68.4C52.8 67.9 53 67.8 53.3 67.4C53.4 66.9 53.5 66.4 53.6 65.7L56.2 64.2C56.2 65 52.5 73 52.7 76.1C52.9 79.2 53.5 91.6 52.7 95.2C51.9 98.9 55 102.9 57.6 105.2C60.2 107.5 63.2 122.5 62.7 127C62.2 131.6 75.2 134.7 79.3 132.2C79.4 132.1 79.6 132 79.7 132C82.9 129.6 80.7 115.1 80.1 107.7C79.4 99.5 70.7 95.3 70.7 95.3C70.7 95.3 73.8 92 78.2 87.3C78.7 86.8 79.2 86.2 79.8 85.6C91.2 73.5 109.4 54.3 110.8 53.8C112.9 53 118.7 52.8 119 58.2C119.3 63.5 111.8 66.5 111.8 66.5L111.7 69.7C111.7 69.7 116.6 68.9 119.3 72.7C121.7 76.2 119.5 81.6 119 82.5C119 82.6 118.9 82.6 118.9 82.6C119.1 82.8 119.3 83 119.4 83.1C122.4 86.3 122.2 88.1 121.3 91C120.7 92.7 119.3 93.5 118.1 93.9Z" fill="#FFCDB5"/>
<path d="M110.4 94.6C110.4 94.6 109.7 101.3 107.2 100C104.8 98.6 94.7001 97.4 90.2001 98.5C85.7001 99.7 83.3001 109.7 83.1001 115.6C83.0001 118.1 83.0001 123.4 82.6001 126.5C82.0001 130.8 80.3001 133.1 80.2001 133.2C79.3001 133.8 78.9001 132.5 79.2001 132.3C79.3001 132.2 79.5001 132.2 79.6001 132.1C82.8001 129.7 80.6001 115.2 80.0001 107.8C79.3001 99.6 70.6001 95.4 70.6001 95.4L75.4001 86.8L78.1001 87.4L110.4 94.6Z" fill="#FFAD99"/>
<path d="M106.1 95.3H67.7C64.3 95.3 61.5 92.5 61.5 89.1V6.2C61.5 2.8 64.3 0 67.7 0H106.1C109.5 0 112.3 2.8 112.3 6.2V89.1C112.2 92.5 109.5 95.3 106.1 95.3Z" fill="url(#paint0_linear)"/>
<path d="M110 7.80005H63.7002V88.6H110V7.80005Z" fill="#02395E"/>
<path d="M79.6002 132C79.5002 132.1 79.4002 132.1 79.2002 132.2C75.1002 134.7 62.1002 131.6 62.6002 127C63.1002 122.4 60.1002 107.5 57.5002 105.2C54.9002 102.9 51.9002 98.9 52.6002 95.2C53.4002 91.5 52.8002 79.2 52.6002 76.1C52.4002 73 56.1002 65 56.1002 64.2L53.5002 65.7C53.6002 65.2 53.6002 64.6 53.6002 64C53.9002 58.4 53.5002 56.8 56.3002 56.8C59.1002 56.8 59.7002 57.9 62.1002 61.3C64.3002 64.3 63.8002 72.6 63.3002 76.2C63.2002 76.7 63.2002 77.1001 63.1002 77.4001C63.1002 78.0001 63.0002 78.8 63.0002 79.7C62.9002 83.2 63.3002 88.6 63.8002 90C64.0002 90.6 64.8002 91.3 65.7002 92C66.4002 92.6 67.3002 93.1 68.0002 93.6C69.4002 94.5 70.6002 95.2 70.6002 95.2C70.6002 95.2 79.3002 99.5 80.0002 107.6C80.6002 115.2 82.8002 129.6 79.6002 132Z" fill="#FFCDB5"/>
<path d="M80.2 133.2C78.9 135.4 74.7 139.3 69 140.1C61.9 141.1 52.3 167.9 49.6 176.8C49.6 176.8 46.2 175.3 44.1 171C42 166.8 42 163.5 42 163.5L44.9 155.2C44.9 155.2 48.5 141.4 50.7 137.9C52.8 134.4 53 129.1 52.9 124.4C52.8 119.8 50.5 110.5 49 105.3C47.5 100.2 48.1 98.4 48.5 95.3C48.9 92.2 49.7 84.9 49.6 80.4C49.5 75.9 49.9 74.8 51 72.5C51.2 72 51.5 71.6 51.7 71.2C52.1 70.5 52.2 69.3 52.6 68.4C52.8 67.9 53 67.8 53.3 67.4C53.4 66.9 53.5 66.4 53.6 65.7C53.6 65.7 55.9 64.5 55.5 65.2C54.8 66.2 55.2 67.2 55 67.9C54 70.7 52 74.5 52.1 76.4C52.3 79.5 54.3 90.1 52.8 95.2C51.7 98.8 54.6 105 57.1 107.3C59.7 109.6 63 122.4 62.7 127C62.3 132.7 71.8 137.2 79.3 132.2C79.4 132.1 79.6 132 79.7 132C80.7 131.5 80.9 132.1 80.2 133.2Z" fill="#FFAD99"/>
<path d="M118 104.8C117 105.5 115.9 106.3 114 109C113.3 109.6 112.2 110.1 111.7 110.4C111.2 110.6 109.9 110.9 109 110.5C106.8 109.6 104.8 106.6 104.7 103.1C104.6 100.5 107.2 97.1001 107.2 97.1001C107.2 97.1001 113.8 102.3 118 104.8Z" fill="#FFAD99"/>
<path d="M99.7002 114C95.8002 110.3 87.2002 99.3999 87.1002 98.3999C87.0002 97.3999 87.9002 95.2999 90.5002 99.4999C92.0002 102 96.5002 109.1 101.3 113.4C105.5 117.3 102.5 116.7 99.7002 114Z" fill="#FFAD99"/>
<path d="M100.7 132.3C97.1 138 92.1 143.6 89.1 146.9C87.8 148.3 86.6 149.6 85.6 150.9C83.8 149.4 82.1 147.8 80.6 147.1C72.8 143.3 74 140 74 140C74 140 83 146.8 87 144.2C91.2 141.6 95.2 137.4 100.7 132.3Z" fill="#FFAD99"/>
<path d="M68.0002 93.7001C66.8002 99.0001 58.1002 104.2 60.3002 101.6C62.3002 99.1001 64.8002 94.6001 65.7002 92.1001C66.4002 92.6001 67.2002 93.2001 68.0002 93.7001Z" fill="#FFAD99"/>
<path d="M63.3002 76.2999C63.2002 76.7999 63.2002 77.1999 63.1002 77.4999C63.1002 77.9999 63.0002 78.7999 63.0002 79.6999C60.7002 78.2999 57.5002 75.1999 59.2002 76.0999C60.6002 76.7999 62.1002 76.8999 63.3002 76.2999Z" fill="#FFAD99"/>
<path d="M119.5 103.9C119.5 103.9 112.5 109.1 109.1 108.3C105.7 107.5 105.1 104.4 105.6 102.2C106 100.7 107.8 99.6 108.9 98.3C109.5 97.6 109.2 96.4 109.7 96.3C111.2 95.9 116.5 94.2 116.5 94.2L119.5 103.9Z" fill="#FFCDB5"/>
<path d="M116.5 94.3C116.5 94.3 116.9 94.6 117.5 95C115.6 95.3 111.6 96.6 108.8 98.6C108.8 98.6 107.8 97 108.8 96.1C110.4 94.6 114.4 93.4 115.2 93.1C116.2 92.8 116.5 94.3 116.5 94.3Z" fill="#FFAD99"/>
<path d="M118.6 83.6999L116.5 94.2999C116.5 94.2999 116.4 94.1999 112.6 95.4999C107.8 97.4999 106.2 93.5999 106 92.6999C105.8 91.8999 104.6 90.0999 107.8 86.6999C108.6 85.7999 109.7 85.1999 110.8 84.5999C114.4 82.8999 118.8 82.3999 118.8 82.3999L118.6 83.6999Z" fill="#FFCDB5"/>
<path d="M119.4 82.9999C119.2 83.1999 118.9 83.3999 118.6 83.6999C117.9 84.2999 116.9 84.9999 115.5 85.4999C113.8 86.1999 112 85.3999 110.8 84.5999C114.4 82.8999 118.8 82.3999 118.8 82.3999C119.1 82.5999 119.3 82.7999 119.4 82.9999Z" fill="#FFAD99"/>
<path d="M112.2 70.7L111.6 72.5C111.6 72.5 109.1 76.5 109.5 80.1C109.9 83.7 112.2 85.2 115.1 84.7C118 84.2 118.9 82.4 118.9 82.4L112.2 70.7Z" fill="#FFCDB5"/>
<path d="M53.2002 67.4999C53.2002 67.4999 56.3002 66.7999 56.8002 64.9999C57.3002 63.1999 58.0002 60.7999 56.8002 59.6999C55.6002 58.5999 54.8002 57.9999 54.1002 58.0999C53.5002 58.0999 53.5002 59.1999 53.5002 60.0999C53.4002 60.8999 53.2002 67.4999 53.2002 67.4999Z" fill="#FFE4DE"/>
<path d="M109.5 103.8C108 102.5 106.9 102.4 107.3 101.9C107.7 101.4 110.5 99 112.2 99.7C114 100.3 115.1 101.9 114.6 103.4C114.1 104.8 112.8 106.5 112.5 106.5C112.2 106.5 111 105.1 109.5 103.8Z" fill="#FFE4DE"/>
<path d="M109.1 88.5C108.7 88.3 109.2 87.4 111 87C112.8 86.5 115.3 86.2 116.3 88.3C117.3 90.4 115 92.9 113.9 93.4C112.8 93.9 112.6 93.3 112 91.9C111.3 90.5 110.2 89.1 109.1 88.5Z" fill="#FFE4DE"/>
<path d="M113.9 75.5C113.7 75.4 114.2 73.8 115.5 73.7C116.7 73.6 119 74.9 119.3 77.2C119.5 79.5 119.7 81 119.3 81C118.9 81 118.6 79.1 117.2 77.8C115.7 76.5 114.7 76.1 113.9 75.5Z" fill="#FFE4DE"/>
<path d="M102.4 55.1999C102.4 56.1999 101.9 57.0999 101 57.4999L94.9997 60.9999C94.9997 60.9999 94.9997 60.9999 94.9997 60.8999C95.0997 60.7999 95.0997 60.5999 95.1997 60.4999C95.1997 60.3999 95.2997 60.3999 95.2997 60.2999C95.3997 60.1999 95.3997 60.0999 95.4997 59.9999C95.4997 59.8999 95.4997 59.8999 95.5997 59.7999C95.5997 59.6999 95.6997 59.5999 95.6997 59.3999C95.6997 59.2999 95.6997 59.2999 95.7997 59.1999C95.8997 58.9999 95.8997 58.8999 95.9997 58.6999C95.9997 58.4999 96.0997 58.3999 96.0997 58.1999C96.0997 58.0999 96.0997 58.0999 96.0997 57.9999C96.0997 57.8999 96.0997 57.7999 96.1997 57.5999C96.1997 57.4999 96.1997 57.4999 96.1997 57.3999C96.1997 57.2999 96.1997 57.0999 96.1997 56.9999C96.1997 56.8999 96.1997 56.8999 96.1997 56.7999C96.1997 56.5999 96.1997 56.3999 96.1997 56.2999C96.1997 54.5999 95.6997 52.9999 94.8997 51.6999C94.6997 51.9999 94.4997 52.3999 94.2997 52.5999C94.8997 53.6999 95.1997 54.8999 95.1997 56.2999C95.1997 58.5999 94.1997 60.6999 92.4997 62.1999C91.6997 62.8999 90.7997 63.3999 89.7997 63.6999C88.1997 64.2999 86.3997 64.2999 84.6997 63.6999C83.9997 63.4999 77.5997 59.6999 73.5997 57.2999C72.7997 56.7999 72.1997 55.8999 72.1997 54.9999V40.9999C72.1997 39.9999 72.6997 39.0999 73.5997 38.6999L79.5997 35.1999C79.5997 35.1999 79.5997 35.2999 79.4997 35.2999C79.3997 35.3999 79.3997 35.4999 79.2997 35.5999C79.2997 35.6999 79.1997 35.6999 79.1997 35.7999C79.0997 35.8999 79.0997 35.9999 78.9997 36.0999C78.9997 36.1999 78.8997 36.1999 78.8997 36.2999C78.7997 36.3999 78.7997 36.5999 78.6997 36.6999V36.7999C78.5997 36.9999 78.5997 37.0999 78.4997 37.2999V37.3999C78.4997 37.4999 78.3997 37.6999 78.3997 37.7999C78.3997 37.8999 78.3997 37.8999 78.3997 37.9999C78.3997 38.0999 78.3997 38.1999 78.2997 38.3999C78.2997 38.4999 78.2997 38.4999 78.2997 38.5999C78.2997 38.6999 78.2997 38.8999 78.2997 38.9999C78.2997 39.0999 78.2997 39.0999 78.2997 39.1999C78.2997 39.3999 78.2997 39.5999 78.2997 39.7999C78.2997 41.1999 78.5997 42.4999 79.1997 43.6999C79.2997 43.3999 79.4997 43.1999 79.7997 43.0999C79.8997 43.0999 79.8997 42.9999 79.9997 42.9999C79.5997 41.9999 79.3997 40.9999 79.3997 39.8999C79.3997 39.7999 79.3997 39.5999 79.3997 39.4999C79.3997 39.1999 79.3997 38.8999 79.4997 38.5999C79.4997 38.3999 79.5997 38.0999 79.5997 37.8999C79.9997 36.2999 80.8997 34.8999 82.2997 33.7999C82.9997 33.2999 83.6997 32.8999 84.4997 32.5999C85.3997 32.2999 86.2997 32.0999 87.2997 32.0999C88.2997 32.0999 89.1997 32.2999 90.0997 32.5999C90.6997 32.7999 96.8997 36.4999 100.9 38.8999C101.7 39.3999 102.3 40.2999 102.3 41.1999V55.1999H102.4Z" fill="url(#paint1_linear)"/>
<path d="M101.5 37.7999C100.5 37.1999 91.3998 31.7999 90.4998 31.4999C88.4998 30.6999 86.1998 30.6999 84.1998 31.4999C83.2998 31.7999 82.4998 32.2999 81.7998 32.8999L73.1998 37.8999C72.0998 38.5999 71.2998 39.7999 71.2998 41.0999V55.2999C71.2998 56.5999 71.9998 57.8999 73.1998 58.4999C74.1998 59.0999 83.3998 64.6999 84.4998 64.9999C85.3998 65.2999 86.3998 65.4999 87.3998 65.4999C88.3998 65.4999 89.2998 65.2999 90.2998 64.9999C91.3998 64.5999 92.3998 64.0999 93.2998 63.2999L101.6 58.4999C102.7 57.7999 103.5 56.5999 103.5 55.2999V40.9999C103.4 39.6999 102.7 38.3999 101.5 37.7999ZM102.4 55.1999C102.4 56.1999 101.9 57.0999 101 57.4999L94.9998 60.9999C94.9998 60.9999 94.9998 60.9999 94.9998 60.8999C95.0998 60.7999 95.0998 60.5999 95.1998 60.4999C95.1998 60.3999 95.2998 60.3999 95.2998 60.2999C95.3998 60.1999 95.3998 60.0999 95.4998 59.9999C95.4998 59.8999 95.4998 59.8999 95.5998 59.7999C95.5998 59.6999 95.6998 59.5999 95.6998 59.3999C95.6998 59.2999 95.6998 59.2999 95.7998 59.1999C95.8998 58.9999 95.8998 58.8999 95.9998 58.6999C95.9998 58.4999 96.0998 58.3999 96.0998 58.1999C96.0998 58.0999 96.0998 58.0999 96.0998 57.9999C96.0998 57.8999 96.0998 57.7999 96.1998 57.5999C96.1998 57.4999 96.1998 57.4999 96.1998 57.3999C96.1998 57.2999 96.1998 57.0999 96.1998 56.9999C96.1998 56.8999 96.1998 56.8999 96.1998 56.7999C96.1998 56.5999 96.1998 56.3999 96.1998 56.2999C96.1998 54.5999 95.6998 52.9999 94.8998 51.6999C94.6998 51.9999 94.4998 52.3999 94.2998 52.5999C94.8998 53.6999 95.1998 54.8999 95.1998 56.2999C95.1998 58.5999 94.1998 60.6999 92.4998 62.1999C91.6998 62.8999 90.7998 63.3999 89.7998 63.6999C88.1998 64.2999 86.3998 64.2999 84.6998 63.6999C83.9998 63.4999 77.5998 59.6999 73.5998 57.2999C72.7998 56.7999 72.1998 55.8999 72.1998 54.9999V40.9999C72.1998 39.9999 72.6998 39.0999 73.5998 38.6999L79.5998 35.1999C79.5998 35.1999 79.5998 35.2999 79.4998 35.2999C79.3998 35.3999 79.3998 35.4999 79.2998 35.5999C79.2998 35.6999 79.1998 35.6999 79.1998 35.7999C79.0998 35.8999 79.0998 35.9999 78.9998 36.0999C78.9998 36.1999 78.8998 36.1999 78.8998 36.2999C78.7998 36.3999 78.7998 36.5999 78.6998 36.6999V36.7999C78.5998 36.9999 78.5998 37.0999 78.4998 37.2999V37.3999C78.4998 37.4999 78.3998 37.6999 78.3998 37.7999C78.3998 37.8999 78.3998 37.8999 78.3998 37.9999C78.3998 38.0999 78.3998 38.1999 78.2998 38.3999C78.2998 38.4999 78.2998 38.4999 78.2998 38.5999C78.2998 38.6999 78.2998 38.8999 78.2998 38.9999C78.2998 39.0999 78.2998 39.0999 78.2998 39.1999C78.2998 39.3999 78.2998 39.5999 78.2998 39.7999C78.2998 41.1999 78.5998 42.4999 79.1998 43.6999C79.2998 43.3999 79.4998 43.1999 79.7998 43.0999C79.8998 43.0999 79.8998 42.9999 79.9998 42.9999C79.5998 41.9999 79.3998 40.9999 79.3998 39.8999C79.3998 39.7999 79.3998 39.5999 79.3998 39.4999C79.3998 39.1999 79.3998 38.8999 79.4998 38.5999C79.4998 38.3999 79.5998 38.0999 79.5998 37.8999C79.9998 36.2999 80.8998 34.8999 82.2998 33.7999C82.9998 33.2999 83.6998 32.8999 84.4998 32.5999C85.3998 32.2999 86.2998 32.0999 87.2998 32.0999C88.2998 32.0999 89.1998 32.2999 90.0998 32.5999C90.6998 32.7999 96.8998 36.4999 100.9 38.8999C101.7 39.3999 102.3 40.2999 102.3 41.1999V55.1999H102.4Z" fill="url(#paint2_linear)"/>
<path d="M89.1996 55.3999H85.3996C85.1996 55.3999 85.0996 55.4999 85.0996 55.6999V55.9999H85.3996H89.1996H89.4996V55.6999C89.4996 55.4999 89.3996 55.3999 89.1996 55.3999Z" fill="url(#paint3_linear)"/>
<path d="M84.9998 45.0999C84.8998 45.1999 84.7998 45.3999 84.8998 45.4999C84.9998 45.5999 84.9998 45.5999 85.0998 45.5999C85.1998 45.5999 85.1998 45.5999 85.2998 45.4999C85.7998 45.0999 86.3998 44.8999 86.9998 44.7999V53.4999V53.9999H85.8998C85.6998 53.9999 85.5998 54.0999 85.5998 54.2999V54.5999H88.9998V54.2999C88.9998 54.0999 88.8998 53.9999 88.6998 53.9999H87.5998V53.4999V44.7999C88.1998 44.8999 88.7998 45.0999 89.2998 45.4999C89.3998 45.5999 89.5998 45.5999 89.6998 45.3999C89.7998 45.2999 89.7998 45.0999 89.5998 44.9999C88.2998 43.9999 86.3998 43.9999 84.9998 45.0999Z" fill="url(#paint4_linear)"/>
<path d="M94.5996 44.3999C94.4996 44.1999 94.2996 44.1999 94.1996 44.2999C92.8996 44.8999 91.3996 44.7999 90.2996 43.9999L89.9996 43.7999C88.3996 42.6999 86.2996 42.7999 84.7996 43.8999C83.5996 44.7999 81.9996 44.8999 80.5996 44.1999C80.3996 44.0999 80.2996 44.1999 80.1996 44.2999C80.0996 44.4999 80.1996 44.5999 80.2996 44.6999C80.7996 44.9999 81.3996 45.1999 81.9996 45.1999L80.4996 49.2999C80.2996 49.9999 80.2996 50.6999 80.7996 51.2999C81.1996 51.8999 81.8996 52.1999 82.5996 52.1999C83.2996 52.1999 83.9996 51.7999 84.3996 51.2999C84.7996 50.6999 84.8996 49.9999 84.6996 49.2999L82.9996 45.1999C83.6996 45.0999 84.3996 44.7999 84.9996 44.3999C86.2996 43.4999 88.1996 43.3999 89.4996 44.3999L89.7996 44.5999C90.2996 44.9999 90.8996 45.1999 91.4996 45.2999L89.9996 49.2999C89.7996 49.9999 89.7996 50.6999 90.2996 51.2999C90.6996 51.8999 91.3996 52.1999 92.0996 52.1999C92.7996 52.1999 93.4996 51.7999 93.8996 51.2999C94.2996 50.6999 94.3996 49.9999 94.1996 49.2999L92.6996 45.2999C93.2996 45.2999 93.7996 45.0999 94.2996 44.8999C94.5996 44.7999 94.6996 44.5999 94.5996 44.3999ZM83.7996 50.8999C83.4996 51.2999 82.9996 51.5999 82.4996 51.5999C81.9996 51.5999 81.4996 51.3999 81.1996 50.8999C80.9996 50.5999 80.8996 50.2999 80.8996 49.9999H84.0996C84.0996 50.2999 83.9996 50.5999 83.7996 50.8999ZM83.8996 49.2999H80.9996L82.3996 45.3999L83.8996 49.2999ZM93.4996 50.8999C93.1996 51.2999 92.6996 51.5999 92.1996 51.5999C91.6996 51.5999 91.1996 51.3999 90.8996 50.8999C90.6996 50.5999 90.5996 50.2999 90.5996 49.9999H93.7996C93.7996 50.2999 93.6996 50.5999 93.4996 50.8999ZM93.5996 49.2999H90.6996L92.0996 45.3999L93.5996 49.2999Z" fill="url(#paint5_linear)"/>
<defs>
<linearGradient id="paint0_linear" x1="56.3363" y1="101.54" x2="121.531" y2="-13.551" gradientUnits="userSpaceOnUse">
<stop offset="0.005618" stop-color="#EFC981"/>
<stop offset="0.1854" stop-color="#E6C081"/>
<stop offset="0.5527" stop-color="#C58511"/>
</linearGradient>
<linearGradient id="paint1_linear" x1="78.5419" y1="39.281" x2="103.392" y2="64.1306" gradientUnits="userSpaceOnUse">
<stop stop-color="#00CFFF" stop-opacity="0"/>
<stop offset="1" stop-color="#00CFFF" stop-opacity="0.3"/>
</linearGradient>
<linearGradient id="paint2_linear" x1="74.4305" y1="61.0107" x2="102.291" y2="33.1505" gradientUnits="userSpaceOnUse">
<stop offset="0.005618" stop-color="#EFC981"/>
<stop offset="0.1854" stop-color="#E6C081"/>
<stop offset="0.5955" stop-color="#C58511"/>
<stop offset="0.8106" stop-color="#E5B76D"/>
<stop offset="0.8708" stop-color="#EEC687"/>
<stop offset="1" stop-color="#F2E4CE"/>
</linearGradient>
<linearGradient id="paint3_linear" x1="84.1445" y1="58.9842" x2="90.9395" y2="52.1892" gradientUnits="userSpaceOnUse">
<stop offset="0.005618" stop-color="#EFC981"/>
<stop offset="0.1854" stop-color="#E6C081"/>
<stop offset="0.5955" stop-color="#C58511"/>
<stop offset="0.8106" stop-color="#E5B76D"/>
<stop offset="0.8708" stop-color="#EEC687"/>
<stop offset="1" stop-color="#F2E4CE"/>
</linearGradient>
<linearGradient id="paint4_linear" x1="78.1678" y1="58.775" x2="97.6547" y2="39.288" gradientUnits="userSpaceOnUse">
<stop offset="0.005618" stop-color="#EFC981"/>
<stop offset="0.1854" stop-color="#E6C081"/>
<stop offset="0.5955" stop-color="#C58511"/>
<stop offset="0.8106" stop-color="#E5B76D"/>
<stop offset="0.8708" stop-color="#EEC687"/>
<stop offset="1" stop-color="#F2E4CE"/>
</linearGradient>
<linearGradient id="paint5_linear" x1="73.4442" y1="61.3853" x2="102.812" y2="32.0178" gradientUnits="userSpaceOnUse">
<stop offset="0.005618" stop-color="#EFC981"/>
<stop offset="0.1854" stop-color="#E6C081"/>
<stop offset="0.5955" stop-color="#C58511"/>
<stop offset="0.8106" stop-color="#E5B76D"/>
<stop offset="0.8708" stop-color="#EEC687"/>
<stop offset="1" stop-color="#F2E4CE"/>
</linearGradient>
</defs>
</svg>
