<svg width="118" height="104" viewBox="0 0 118 104" fill="none" xmlns="http://www.w3.org/2000/svg">
<path d="M114.481 13.8824H83.0458V10.3529C83.2804 4.70588 78.5885 0 72.7237 0H45.2764C39.6462 0 34.9543 4.70588 34.9543 10.3529V13.8824H3.51895C1.64221 13.8824 6.10352e-05 15.5294 6.10352e-05 17.4118V93.647C6.10352e-05 99.2941 4.69191 104 10.3221 104H107.678C113.308 104 118 99.2941 118 93.647V17.4118C117.765 15.0588 116.358 13.8824 114.481 13.8824ZM41.7575 10.3529C41.7575 8.47059 43.3997 6.82353 45.2764 6.82353H72.7237C74.6005 6.82353 76.2426 8.47059 76.2426 10.3529V13.8824H41.7575V10.3529ZM109.789 20.7059L98.9981 52.9412C98.5289 54.3529 97.1213 55.2941 95.7138 55.2941H76.2426V51.7647C76.2426 49.8824 74.6005 48.2353 72.7237 48.2353H45.2764C43.3997 48.2353 41.7575 49.8824 41.7575 51.7647V55.2941H22.2863C20.8788 55.2941 19.4712 54.3529 19.002 52.9412L8.2108 20.7059H109.789ZM69.4394 55.5294V62.3529H48.7953V55.5294H69.4394ZM110.962 93.647C110.962 95.5294 109.32 97.1765 107.443 97.1765H10.3221C8.44539 97.1765 6.80324 95.5294 6.80324 93.647V38.5882L12.4335 55.2941C13.841 59.5294 17.8291 62.3529 22.2863 62.3529H41.7575V65.8823C41.7575 67.7647 43.3997 69.4118 45.2764 69.4118H72.7237C74.6005 69.4118 76.2426 67.7647 76.2426 65.8823V62.3529H95.7138C100.171 62.3529 104.159 59.5294 105.567 55.2941L111.197 38.5882V93.647H110.962Z" fill="#C58511"/>
</svg>
