<svg width="223" height="249" viewBox="0 0 223 249" fill="none" xmlns="http://www.w3.org/2000/svg">
<path d="M96.5001 4.66025C105.782 -0.69873 117.218 -0.69873 126.5 4.66025L207.784 51.5897C217.066 56.9487 222.784 66.8525 222.784 77.5705V171.429C222.784 182.147 217.066 192.051 207.784 197.41L126.5 244.34C117.218 249.699 105.782 249.699 96.5001 244.34L15.2158 197.41C5.93377 192.051 0.215797 182.147 0.215797 171.429V77.5705C0.215797 66.8525 5.93377 56.9487 15.2158 51.5897L96.5001 4.66025Z" fill="#DEDFE0"/>
</svg>
