<svg width="717" height="656" viewBox="0 0 717 656" fill="none" xmlns="http://www.w3.org/2000/svg">
  <path
    d="M196.718 299.657C186.904 299.657 177.203 301.345 168.066 304.834C160.283 307.76 59.3258 367.517 59.3258 367.517C50.5273 372.582 45 382.147 45 392.276V533.961C45 544.202 50.5273 553.655 59.3258 558.719L59.4386 558.832C109.748 589.104 164.231 620.84 170.999 623.091C179.346 625.904 188.032 627.367 196.831 627.367C205.629 627.367 214.315 625.904 222.662 623.091C232.476 619.715 334.223 558.719 334.223 558.719C343.021 553.655 348.548 544.089 348.548 533.961V392.276C348.548 382.035 343.021 372.582 334.223 367.517H334.11C285.944 339.045 231.348 307.197 225.482 304.946C216.232 301.345 206.532 299.657 196.718 299.657Z"
    fill="#C58511"/>

  <path
    d="M413.169 0.26709C393.542 0.26709 374.14 3.64323 355.866 10.6206C340.3 16.4725 138.385 135.988 138.385 135.988C120.788 146.116 109.734 165.248 109.734 185.505V468.875C109.734 489.357 120.788 508.263 138.385 518.392L138.611 518.617C239.23 579.162 348.196 642.633 361.732 647.135C378.427 652.762 395.798 655.688 413.395 655.688C430.992 655.688 448.363 652.762 465.058 647.135C484.685 640.383 688.179 518.392 688.179 518.392C705.776 508.263 716.831 489.132 716.831 468.875V185.505C716.831 165.023 705.776 146.116 688.179 135.988H687.953C591.621 79.0436 482.429 15.3472 470.698 10.8457C452.199 3.64323 432.797 0.26709 413.169 0.26709Z"
    fill="url(#paint0_linear)"/>
  <path
    d="M413.169 0.26709C393.542 0.26709 374.14 3.64323 355.866 10.6206C340.3 16.4725 138.385 135.988 138.385 135.988C120.788 146.116 109.734 165.248 109.734 185.505V468.875C109.734 489.357 120.788 508.263 138.385 518.392L138.611 518.617C239.23 579.162 348.196 642.634 361.732 647.135C378.427 652.762 395.798 655.688 413.395 655.688C430.992 655.688 448.363 652.762 465.058 647.135C484.685 640.383 688.179 518.392 688.179 518.392C705.776 508.263 716.831 489.132 716.831 468.875V185.505C716.831 165.023 705.776 146.116 688.179 135.988H687.953C591.621 79.0436 482.429 15.3472 470.698 10.8457C452.199 3.64323 432.797 0.26709 413.169 0.26709Z"
    fill="white"/>
  <path opacity="0.2"
        d="M618.791 378.468L439.232 273.938C429.499 268.291 412.404 268.919 401.174 275.444L24.2113 493.538C12.981 500.063 11.7332 509.977 21.4661 515.624L201.025 620.153C210.758 625.8 227.853 625.173 239.084 618.647L616.046 400.553C627.276 394.153 628.524 384.24 618.791 378.468Z"
        fill="#0578A0"/>
  <path
    d="M217.62 601.833C210.882 601.833 204.393 600.453 199.402 597.567L19.8429 492.912C14.6021 489.9 11.7322 485.508 11.7322 480.614C11.7322 474.967 15.7252 469.446 22.5881 465.43L399.55 247.336C411.904 240.183 429.997 239.556 440.728 245.83L620.287 350.36C625.528 353.372 628.398 357.764 628.398 362.657C628.398 368.304 624.405 373.826 617.542 377.841L240.705 595.935C233.966 599.825 225.606 601.833 217.62 601.833ZM422.635 247.713C415.647 247.713 408.285 249.344 402.67 252.607L25.7076 470.826C20.8412 473.587 17.9712 477.351 17.9712 480.614C17.9712 483.877 20.7164 486.135 22.9624 487.516L202.522 592.045C211.256 597.19 227.228 596.437 237.46 590.539L614.423 372.445C619.289 369.685 622.159 366.046 622.159 362.657C622.159 359.395 619.414 357.136 617.168 355.756L437.608 251.226C433.74 248.842 428.375 247.713 422.635 247.713Z"
    fill="#0578A0"/>
  <path
    d="M195.785 556.031L8.86332 447.235C2.74907 443.596 -0.120884 438.828 0.00389714 433.808L0.128678 406.578L10.4855 418.875C11.1094 418.373 11.8581 417.997 12.6067 417.495L394.935 196.264C410.158 187.48 433.117 186.601 446.219 194.256L630.52 301.546C634.264 297.405 642.125 288.747 642.125 288.747L642 315.475C642.25 321.498 638.007 327.898 629.397 332.918L247.07 554.023C231.846 562.807 208.887 563.686 195.785 556.031Z"
    fill="#396CAA"/>
  <path
    d="M94.7118 489.272L105.443 495.547C106.815 496.425 108.063 495.547 108.063 493.539C108.063 491.657 106.94 489.398 105.443 488.519L94.7118 482.245C93.3392 481.367 92.0914 482.245 92.0914 484.253C92.0914 486.135 93.3392 488.394 94.7118 489.272Z"
    fill="#173D7A"/>
  <path
    d="M394.934 196.138C410.157 187.354 433.117 186.475 446.219 194.13L630.52 301.42C634.263 297.279 642.124 288.621 642.124 288.621L641.999 315.349C642.249 321.372 638.006 327.772 629.397 332.792L247.069 554.023C239.208 558.666 229.1 561.05 219.492 561.176L219.867 297.53L394.934 196.138Z"
    fill="url(#paint1_linear)"/>
  <path
    d="M633.144 275.445L446.347 166.649C433.245 158.994 410.286 159.873 395.062 168.657L12.7344 390.013C-2.48881 398.797 -4.11095 412.099 8.99101 419.754L195.912 528.55C209.014 536.204 231.974 535.326 247.197 526.542L629.525 305.311C644.624 296.527 646.371 283.1 633.144 275.445Z"
    fill="#D4ECFF"/>
  <path
    d="M195.784 531.561L8.86301 422.64C2.12486 418.75 -0.745096 413.228 0.253149 407.707C0.627491 412.225 3.49745 416.491 8.98779 419.754L195.909 528.55C209.011 536.204 231.971 535.326 247.194 526.542L629.522 305.311C636.884 301.044 641.002 295.774 641.875 290.503C642.374 296.652 638.132 303.177 629.397 308.197L246.944 529.428C231.846 538.212 208.886 539.216 195.784 531.561Z"
    fill="white"/>
  <path
    d="M618.791 279.836L439.232 175.181C429.499 169.535 412.404 170.162 401.174 176.687L24.2113 394.907C12.981 401.432 11.7332 411.345 21.4661 416.992L201.025 521.522C210.758 527.169 227.853 526.541 239.084 520.016L616.046 301.922C627.276 295.397 628.524 285.483 618.791 279.836Z"
    fill="#02395E"/>
  <path d="M246.196 467.312L119.544 393.652L127.654 389.009L254.307 462.544L246.196 467.312Z" fill="#D4ECFF"/>
  <path d="M158.101 445.854L93.9638 408.584L101.95 403.816L166.212 441.085L158.101 445.854Z" fill="#D4ECFF"/>
  <path d="M189.171 463.924L168.458 451.752L176.444 447.109L197.282 459.156L189.171 463.924Z" fill="#C58511"/>
  <path d="M220.616 482.119L199.778 470.073L207.889 465.304L228.727 477.476L220.616 482.119Z" fill="white"/>
  <path d="M158.85 431.297L106.691 401.055L114.802 396.412L166.835 426.654L158.85 431.297Z" fill="#E6C081"/>
  <path d="M222.362 468.316L170.328 438.074L178.439 433.305L230.473 463.547L222.362 468.316Z" fill="#D4ECFF"/>
  <path
    d="M183.805 403.691C181.185 405.197 176.942 405.197 174.322 403.691C171.701 402.185 171.701 399.676 174.322 398.17C176.942 396.664 181.185 396.664 183.805 398.17C186.425 399.676 186.425 402.06 183.805 403.691Z"
    fill="#C58511"/>
  <path
    d="M197.907 411.848C195.286 413.353 191.044 413.353 188.423 411.848C185.803 410.342 185.803 407.832 188.423 406.326C191.044 404.82 195.286 404.82 197.907 406.326C200.527 407.832 200.527 410.342 197.907 411.848Z"
    fill="#E6C081"/>
  <path
    d="M212.006 420.004C209.386 421.51 205.143 421.51 202.523 420.004C199.902 418.499 199.902 415.989 202.523 414.483C205.143 412.977 209.386 412.977 212.006 414.483C214.626 415.989 214.626 418.499 212.006 420.004Z"
    fill="#D4ECFF"/>
  <path
    d="M226.106 428.161C223.485 429.667 219.243 429.667 216.622 428.161C214.002 426.655 214.002 424.145 216.622 422.639C219.243 421.134 223.485 421.134 226.106 422.639C228.726 424.271 228.726 426.655 226.106 428.161Z"
    fill="#C58511"/>
  <path
    d="M240.205 436.317C237.585 437.823 233.342 437.823 230.722 436.317C228.101 434.811 228.101 432.301 230.722 430.795C233.342 429.29 237.585 429.29 240.205 430.795C242.825 432.427 242.825 434.811 240.205 436.317Z"
    fill="white"/>
  <path d="M523.71 280.59L502.372 268.167L510.608 263.399L531.945 275.822L523.71 280.59Z" fill="#C58511"/>
  <path d="M553.408 297.907L532.07 285.484L540.306 280.59L561.643 293.013L553.408 297.907Z" fill="white"/>
  <path d="M428.377 224.748L407.039 212.325L415.275 207.557L436.612 219.98L428.377 224.748Z" fill="white"/>
  <path d="M518.844 293.138L489.146 275.821L497.507 271.053L527.204 288.244L518.844 293.138Z" fill="white"/>
  <path d="M540.181 305.436L527.204 297.907L535.439 293.138L548.541 300.667L540.181 305.436Z" fill="#D4ECFF"/>
  <path
    d="M415.399 246.332L405.666 278.582L380.585 296.024L399.552 303.804L393.937 335.803L415.399 307.946L436.986 310.832L431.246 285.358L450.213 255.492L425.257 267.288L415.399 246.332Z"
    fill="#E8A200"/>
  <path
    d="M461.943 262.269L450.213 255.492L432.12 263.9C432.12 263.9 432.245 276.072 432.12 276.449C431.995 276.7 439.607 277.076 440.106 277.076C440.605 277.076 461.943 262.269 461.943 262.269Z"
    fill="#D3008D"/>
  <path d="M393.936 335.803L405.666 342.579L411.406 310.58L405.791 304.557L399.427 305.686L393.936 335.803Z"
        fill="#D3008D"/>
  <path
    d="M427.128 253.109L417.27 285.358L392.314 302.675L411.281 310.456L405.541 342.58L427.128 314.722L448.59 317.483L442.975 292.135L461.942 262.269L436.861 274.065L427.128 253.109Z"
    fill="#C58511"/>
  <path
    d="M407.912 339.568L413.277 309.451L395.933 302.299L418.892 286.487L427.502 258.002L436.112 276.449L460.195 265.155L461.942 262.394L436.861 274.19L427.128 253.234L417.395 285.483L392.314 302.801L411.281 310.581L405.541 342.58L407.912 339.568Z"
    fill="white"/>
  <path d="M427.129 253.108L415.4 246.332L405.667 278.582L417.271 285.358L427.129 253.108Z" fill="#D3008D"/>
  <path d="M380.585 296.025L392.315 302.676L417.271 285.358L405.666 278.582L380.585 296.025Z" fill="#D3008D"/>
  <path d="M416.772 286.237L418.519 285.107L405.916 277.829L405.667 278.582L404.793 279.209L416.772 286.237Z"
        fill="white"/>
  <path
    d="M335.538 292.26L325.806 324.635L300.725 341.952L319.691 349.732L314.076 381.731L335.538 353.873L357.125 356.759L351.386 331.286L370.352 301.42L345.396 313.216L335.538 292.26Z"
    fill="#E8A200"/>
  <path
    d="M382.082 308.196L370.352 301.419L352.259 309.827C352.259 309.827 352.384 321.999 352.259 322.376C352.134 322.627 359.746 323.003 360.245 323.003C360.869 323.128 382.082 308.196 382.082 308.196Z"
    fill="#D3008D"/>
  <path d="M314.075 381.73L325.805 388.506L331.545 356.508L325.93 350.484L319.566 351.614L314.075 381.73Z"
        fill="#D3008D"/>
  <path
    d="M347.267 299.036L337.534 331.286L312.453 348.728L331.42 356.509L325.68 388.507L347.267 360.65L368.854 363.536L363.114 338.062L382.081 308.197L357 319.992L347.267 299.036Z"
    fill="#C58511"/>
  <path
    d="M328.051 385.496L333.416 355.379L316.072 348.226L339.031 332.415L347.641 303.93L356.251 322.376L380.334 311.083L382.081 308.322L357 320.118L347.267 299.161L337.534 331.411L312.453 348.728L331.42 356.508L325.68 388.507L328.051 385.496Z"
    fill="white"/>
  <path d="M347.266 299.036L335.537 292.26L325.804 324.635L337.533 331.286L347.266 299.036Z" fill="#D3008D"/>
  <path d="M300.724 341.952L312.454 348.728L337.535 331.285L325.805 324.635L300.724 341.952Z" fill="#D3008D"/>
  <path d="M336.911 332.164L338.658 331.161L326.055 323.757L325.806 324.635L324.932 325.137L336.911 332.164Z"
        fill="white"/>
  <path
    d="M255.805 338.313L245.947 370.563L220.866 387.88L239.957 395.66L234.217 427.659L255.805 399.801L277.267 402.687L271.527 377.339L290.618 347.473L265.537 359.143L255.805 338.313Z"
    fill="#E8A200"/>
  <path
    d="M302.223 354.124L290.493 347.348L272.4 355.755C272.4 355.755 272.525 367.927 272.4 368.304C272.275 368.555 279.887 368.931 280.386 368.931C281.01 369.057 302.223 354.124 302.223 354.124Z"
    fill="#D3008D"/>
  <path d="M234.216 427.658L245.946 434.434L251.686 402.435L246.07 396.412L239.707 397.541L234.216 427.658Z"
        fill="#D3008D"/>
  <path
    d="M267.408 344.963L257.675 377.338L232.594 394.655L251.561 402.436L245.946 434.434L267.408 406.577L288.995 409.463L283.255 383.989L302.222 354.124L277.266 365.919L267.408 344.963Z"
    fill="#C58511"/>
  <path
    d="M248.192 431.548L253.557 401.432L236.213 394.279L259.172 378.468L267.782 349.983L276.392 368.429L300.475 357.135L302.222 354.375L277.141 366.17L267.408 345.214L257.675 377.464L232.594 394.655L251.561 402.436L245.821 434.435L248.192 431.548Z"
    fill="white"/>
  <path d="M267.409 344.963L255.804 338.312L245.947 370.562L257.676 377.338L267.409 344.963Z" fill="#D3008D"/>
  <path d="M220.865 387.88L232.595 394.656L257.676 377.339L245.946 370.563L220.865 387.88Z" fill="#D3008D"/>
  <path d="M257.052 378.091L258.799 377.087L246.196 369.684L245.947 370.562L245.073 371.064L257.052 378.091Z"
        fill="white"/>
  <path
    d="M359.872 170.162L350.139 202.412L325.058 219.729L344.024 227.509L338.284 259.633L359.872 231.775L381.459 234.536L375.719 209.188L394.685 179.322L369.604 191.118L359.872 170.162Z"
    fill="#E8A200"/>
  <path
    d="M406.415 186.098L394.685 179.322L376.592 187.729C376.592 187.729 376.717 199.901 376.592 200.278C376.467 200.529 384.079 200.905 384.578 200.905C385.077 200.905 406.415 186.098 406.415 186.098Z"
    fill="#D3008D"/>
  <path d="M338.283 259.632L350.013 266.409L355.753 234.41L350.138 228.386L343.774 229.516L338.283 259.632Z"
        fill="#D3008D"/>
  <path
    d="M371.6 176.938L361.742 209.188L336.786 226.505L355.753 234.285L350.013 266.284L371.6 238.426L393.062 241.312L387.447 215.964L406.414 186.098L381.333 197.768L371.6 176.938Z"
    fill="#C58511"/>
  <path
    d="M352.259 263.397L357.625 233.281L340.28 226.128L363.24 210.317L371.85 181.831L380.459 200.278L404.542 188.984L406.289 186.223L381.208 198.019L371.475 177.063L361.742 209.313L336.786 226.504L355.753 234.284L350.013 266.283L352.259 263.397Z"
    fill="white"/>
  <path d="M371.599 176.938L359.87 170.162L350.137 202.411L361.742 209.188L371.599 176.938Z" fill="#D3008D"/>
  <path d="M325.057 219.728L336.787 226.505L361.743 209.188L350.138 202.411L325.057 219.728Z" fill="#D3008D"/>
  <path d="M361.244 209.941L362.991 208.937L350.388 201.533L350.139 202.411L349.265 203.039L361.244 209.941Z"
        fill="white"/>
  <path
    d="M280.013 216.09L270.28 248.339L245.199 265.656L264.165 273.562L258.55 305.561L280.013 277.703L301.6 280.589L295.86 255.116L314.826 225.25L289.87 237.046L280.013 216.09Z"
    fill="#E8A200"/>
  <path
    d="M326.556 232.026L314.826 225.25L296.733 233.658C296.733 233.658 296.858 245.83 296.733 246.206C296.609 246.457 304.22 246.834 304.719 246.834C305.218 246.834 326.556 232.026 326.556 232.026Z"
    fill="#D3008D"/>
  <path d="M258.55 305.561L270.279 312.337L276.019 280.338L270.404 274.315L264.04 275.445L258.55 305.561Z"
        fill="#D3008D"/>
  <path
    d="M291.741 222.866L281.884 255.116L256.927 272.433L275.894 280.213L270.154 312.338L291.741 284.48L313.203 287.241L307.588 261.893L326.555 232.027L301.474 243.823L291.741 222.866Z"
    fill="#C58511"/>
  <path
    d="M272.525 309.326L277.891 279.209L260.546 272.056L283.506 256.245L292.116 227.76L300.725 246.206L324.808 234.913L326.555 232.152L301.474 243.948L291.741 222.991L282.008 255.241L256.927 272.558L275.894 280.338L270.154 312.337L272.525 309.326Z"
    fill="white"/>
  <path d="M291.742 222.866L280.013 216.09L270.28 248.339L281.885 255.116L291.742 222.866Z" fill="#D3008D"/>
  <path d="M245.199 265.657L256.928 272.433L281.884 255.116L270.28 248.34L245.199 265.657Z" fill="#D3008D"/>
  <path d="M281.385 255.994L283.132 254.865L270.529 247.461L270.28 248.34L269.406 248.967L281.385 255.994Z"
        fill="white"/>
  <path
    d="M308.087 278.582C301.224 282.597 301.224 289.122 308.087 293.138L425.256 361.151C427.127 362.281 430.247 362.281 432.119 361.151C433.99 360.022 433.99 358.265 432.119 357.136L314.95 289.122C311.83 287.366 311.83 284.354 314.95 282.597L326.305 275.946C325.057 274.064 323.934 272.056 322.811 270.049L308.087 278.582Z"
    fill="#D4ECFF"/>
  <path
    d="M474.046 332.792L356.877 264.778C350.014 260.763 338.784 260.763 331.921 264.778L322.812 270.049C323.935 272.056 325.058 274.064 326.306 275.946L338.784 268.794C341.903 267.037 346.894 267.037 350.014 268.794L467.183 336.807C469.055 337.936 472.174 337.936 474.046 336.807C476.042 335.678 476.042 333.921 474.046 332.792Z"
    fill="#5793CE"/>
  <path
    d="M475.543 334.924V169.283L352.758 100.392L335.539 99.2622L318.943 110.054L308.711 118.963L428.375 309.827L467.432 332.917L475.543 334.924Z"
    fill="#5793CE"/>
  <path d="M430.123 355.881L466.808 334.548V174.428L429 192.122L430.123 355.881Z" fill="#79B1E0"/>
  <path d="M302.971 120.219V285.734L431.869 359.896L433.616 359.144V193.502L302.971 120.219Z"
        fill="url(#paint2_linear)"/>
  <path
    d="M375.469 121.6L349.889 106.792C346.769 105.286 342.152 105.412 339.282 107.169L315.449 120.972C313.578 122.102 312.829 123.482 313.203 124.862L377.964 163.763L429.998 195.887L466.808 174.429L375.469 121.6Z"
    fill="white"/>
  <path
    d="M429 190.868V355.254V358.768V361.905C430.123 361.905 431.37 361.654 432.244 361.152C433.117 360.65 433.616 359.897 433.616 359.144V193.503L429 190.868Z"
    fill="#5793CE"/>
  <path d="M475.543 171.291V169.283H474.919L474.669 170.664L475.543 171.291Z" fill="white"/>
  <path d="M433.616 195.636V193.503L432.993 194.381L433.616 195.636Z" fill="white"/>
  <path
    d="M425.253 195.385L308.084 127.371C301.221 123.356 301.221 116.831 308.084 112.815L331.917 99.0117C338.78 94.9961 350.01 94.9961 356.873 99.0117L474.042 167.025C475.914 168.154 475.914 169.911 474.042 171.04C472.171 172.17 469.051 172.17 467.179 171.04L350.01 103.027C346.891 101.27 341.9 101.27 338.78 103.027L314.947 116.831C311.827 118.587 311.827 121.599 314.947 123.356L432.116 191.369C433.988 192.498 433.988 194.255 432.116 195.385C430.244 196.514 427.249 196.514 425.253 195.385Z"
    fill="#D4ECFF"/>
  <path d="M394.81 273.938L333.917 238.551V177.189L394.81 212.45V273.938Z" fill="white"/>
  <path
    d="M474.044 171.166C472.172 172.295 469.052 172.295 467.181 171.166L350.012 103.153C346.892 101.396 341.901 101.396 338.781 103.153L314.948 116.956C312.952 118.086 312.203 119.842 312.827 121.348C313.201 120.595 313.825 119.842 314.948 119.215L338.781 105.412C341.901 103.655 346.892 103.655 350.012 105.412L467.181 173.425C469.052 174.554 472.172 174.554 474.044 173.425C475.541 172.546 475.791 171.417 475.042 170.288C474.917 170.539 474.543 170.79 474.044 171.166Z"
    fill="white"/>
  <path
    d="M432.119 195.385C430.247 196.514 427.128 196.514 425.256 195.385L308.087 127.371C305.092 125.615 303.47 123.481 302.971 121.223C302.472 124.234 304.094 127.246 308.087 129.63L425.256 197.643C427.128 198.773 430.247 198.773 432.119 197.643C433.616 196.765 433.866 195.636 433.117 194.506C432.992 194.883 432.618 195.134 432.119 195.385Z"
    fill="white"/>
  <path
    d="M254.183 346.219C247.32 350.234 247.32 356.759 254.183 360.775L371.352 428.788C373.224 429.918 376.344 429.918 378.215 428.788C380.087 427.659 380.087 425.902 378.215 424.773L261.046 356.759C257.927 355.003 257.927 351.991 261.046 350.234L272.401 343.583C271.154 341.701 270.031 339.693 268.908 337.686L254.183 346.219Z"
    fill="#C58511"/>
  <path
    d="M420.266 400.428L303.097 332.415C296.234 328.399 285.004 328.399 278.141 332.415L269.032 337.685C270.155 339.693 271.278 341.701 272.526 343.583L285.004 336.431C288.123 334.674 293.114 334.674 296.234 336.431L413.403 404.444C415.275 405.573 418.394 405.573 420.266 404.444C422.138 403.314 422.138 401.558 420.266 400.428Z"
    fill="#D3008D"/>
  <path
    d="M421.639 402.562V236.795L298.855 167.903L281.635 166.774L265.039 177.691L254.807 186.601L374.472 377.339L413.528 400.554L421.639 402.562Z"
    fill="#E6C081"/>
  <path d="M376.219 423.518L412.904 402.185V241.94L375.096 259.633L376.219 423.518Z" fill="#F9D9A5"/>
  <path d="M249.067 187.855V353.246L377.965 427.408L379.712 426.78V261.014L249.067 187.855Z" fill="#C58511"/>
  <path
    d="M321.565 189.236L295.985 174.429C292.866 172.923 288.249 173.049 285.379 174.805L261.546 188.609C259.674 189.738 258.925 191.119 259.3 192.499L324.061 231.399L376.094 263.524L412.905 242.066L321.565 189.236Z"
    fill="white"/>
  <path
    d="M375.096 258.504V422.891V426.404V429.541C376.219 429.541 377.467 429.29 378.34 428.788C379.214 428.287 379.713 427.534 379.713 426.781V261.14L375.096 258.504Z"
    fill="#E6C081"/>
  <path d="M421.639 238.928V236.795H421.015L420.766 238.175L421.639 238.928Z" fill="white"/>
  <path d="M379.713 263.273V261.14L379.089 262.018L379.713 263.273Z" fill="white"/>
  <path
    d="M371.477 263.021L254.308 195.008C247.445 190.993 247.445 184.467 254.308 180.452L278.141 166.648C285.004 162.633 296.235 162.633 303.098 166.648L420.267 234.662C422.138 235.791 422.138 237.548 420.267 238.677C418.395 239.807 415.275 239.807 413.404 238.677L296.235 170.664C293.115 168.907 288.124 168.907 285.004 170.664L261.171 184.467C258.052 186.224 258.052 189.236 261.171 190.993L378.34 259.006C380.212 260.135 380.212 261.892 378.34 263.021C376.344 264.151 373.349 264.151 371.477 263.021Z"
    fill="#C58511"/>
  <path d="M340.905 341.45L280.012 306.063V244.701L340.905 280.088V341.45Z" fill="white"/>
  <path
    d="M420.266 238.678C418.394 239.807 415.275 239.807 413.403 238.678L296.234 170.665C293.114 168.908 288.123 168.908 284.13 171.167L260.297 184.97C259.049 185.723 258.425 187.354 259.049 188.86C259.424 188.107 260.048 187.354 261.171 186.727L285.004 172.923C288.123 171.167 293.114 171.167 296.234 172.923L413.403 240.937C415.275 242.066 418.394 242.066 420.266 240.937C421.763 240.058 422.013 238.929 421.264 237.799C421.015 238.176 420.64 238.427 420.266 238.678Z"
    fill="white"/>
  <path
    d="M378.34 263.022C376.468 264.151 373.349 264.151 371.477 263.022L254.308 195.009C251.313 193.252 249.691 191.119 249.192 188.86C248.693 191.872 250.315 194.883 254.308 197.267L371.477 265.281C373.349 266.41 376.468 266.41 378.34 265.281C379.837 264.402 380.087 263.273 379.338 262.143C379.088 262.52 378.714 262.771 378.34 263.022Z"
    fill="white"/>
  <path
    d="M198.903 397.166C192.04 401.181 192.04 407.707 198.903 411.722L316.072 479.735C317.944 480.865 321.063 480.865 322.935 479.735C324.807 478.606 324.807 476.849 322.935 475.72L205.766 407.707C202.647 405.95 202.647 402.938 205.766 401.181L217.121 394.531C215.873 392.648 214.75 390.641 213.627 388.633L198.903 397.166Z"
    fill="#D4ECFF"/>
  <path
    d="M364.862 451.376L247.693 383.362C240.83 379.347 229.6 379.347 222.737 383.362L213.628 388.633C214.751 390.64 215.874 392.648 217.122 394.53L229.6 387.378C232.72 385.621 237.711 385.621 240.83 387.378L357.999 455.391C359.871 456.52 362.991 456.52 364.862 455.391C366.734 454.262 366.734 452.505 364.862 451.376Z"
    fill="#5793CE"/>
  <path
    d="M366.234 453.509V287.868L243.45 218.976L226.231 217.847L209.635 228.639L199.528 237.548L319.192 428.412L358.249 451.627L366.234 453.509Z"
    fill="#5793CE"/>
  <path d="M320.816 474.465L357.501 453.132V293.012L319.693 310.706L320.816 474.465Z" fill="#79B1E0"/>
  <path d="M193.664 238.803V404.318L322.687 478.48L324.309 477.853V312.086L193.664 238.803Z"
        fill="url(#paint3_linear)"/>
  <path
    d="M266.162 240.184L240.582 225.376C237.463 223.87 232.846 223.996 229.976 225.753L206.143 239.556C204.271 240.685 203.522 242.066 203.897 243.446L268.658 282.347L320.691 314.471L357.502 293.013L266.162 240.184Z"
    fill="white"/>
  <path
    d="M319.693 309.451V371.441V473.838V477.351V480.488C320.816 480.488 322.064 480.237 322.937 479.735C323.811 479.234 324.31 478.481 324.31 477.728V312.087L319.693 309.451Z"
    fill="#5793CE"/>
  <path d="M366.236 289.875V287.867H365.612L365.363 289.248L366.236 289.875Z" fill="white"/>
  <path d="M324.31 314.219V312.086L323.686 312.965L324.31 314.219Z" fill="white"/>
  <path
    d="M316.074 314.094L198.905 246.081C192.042 242.066 192.042 235.54 198.905 231.525L222.739 217.721C229.601 213.706 240.832 213.706 247.695 217.721L364.864 285.735C366.735 286.864 366.735 288.621 364.864 289.75C362.992 290.88 359.872 290.88 358.001 289.75L240.832 221.611C237.712 219.855 232.721 219.855 229.601 221.611L205.768 235.415C202.649 237.172 202.649 240.183 205.768 241.94L322.937 309.953C324.809 311.083 324.809 312.84 322.937 313.969C321.066 315.098 317.946 315.098 316.074 314.094Z"
    fill="#D4ECFF"/>
  <path d="M285.504 392.523L224.611 357.136V295.774L285.504 331.161V392.523Z" fill="white"/>
  <path
    d="M364.862 289.75C362.99 290.879 359.871 290.879 357.999 289.75L240.83 221.611C237.711 219.855 232.719 219.855 229.6 221.611L205.767 235.415C203.77 236.544 203.022 238.301 203.646 239.807C204.02 239.054 204.644 238.301 205.767 237.673L229.6 223.87C232.719 222.113 237.711 222.113 240.83 223.87L357.999 291.883C359.871 293.013 362.99 293.013 364.862 291.883C366.36 291.005 366.609 289.876 365.86 288.746C365.611 289.123 365.361 289.499 364.862 289.75Z"
    fill="white"/>
  <path
    d="M322.937 314.094C321.066 315.224 317.946 315.224 316.074 314.094L198.905 246.081C195.911 244.324 194.288 242.191 193.789 239.932C193.29 242.944 194.912 245.955 198.905 248.34L316.074 316.353C317.946 317.482 321.066 317.482 322.937 316.353C324.435 315.475 324.684 314.345 323.936 313.216C323.686 313.467 323.436 313.843 322.937 314.094Z"
    fill="white"/>
  <defs>
    <linearGradient id="paint0_linear" x1="413.282" y1="0.26709" x2="413.282" y2="655.688"
                    gradientUnits="userSpaceOnUse">
      <stop stop-color="white"/>
      <stop offset="1" stop-color="white" stop-opacity="0"/>
    </linearGradient>
    <linearGradient id="paint1_linear" x1="219.445" y1="375.035" x2="666.622" y2="375.035"
                    gradientUnits="userSpaceOnUse">
      <stop stop-color="#86B8E0"/>
      <stop offset="0.1163" stop-color="#98C4E7"/>
      <stop offset="0.3255" stop-color="#B2D6F2"/>
      <stop offset="0.5401" stop-color="#C5E2F9"/>
      <stop offset="0.7615" stop-color="#D0EAFE"/>
      <stop offset="1" stop-color="#D4ECFF"/>
    </linearGradient>
    <linearGradient id="paint2_linear" x1="302.94" y1="240.069" x2="433.592" y2="240.069"
                    gradientUnits="userSpaceOnUse">
      <stop stop-color="#86B8E0"/>
      <stop offset="0.1163" stop-color="#98C4E7"/>
      <stop offset="0.3255" stop-color="#B2D6F2"/>
      <stop offset="0.5401" stop-color="#C5E2F9"/>
      <stop offset="0.7615" stop-color="#D0EAFE"/>
      <stop offset="1" stop-color="#D4ECFF"/>
    </linearGradient>
    <linearGradient id="paint3_linear" x1="193.695" y1="358.675" x2="324.346" y2="358.675"
                    gradientUnits="userSpaceOnUse">
      <stop stop-color="#86B8E0"/>
      <stop offset="0.1163" stop-color="#98C4E7"/>
      <stop offset="0.3255" stop-color="#B2D6F2"/>
      <stop offset="0.5401" stop-color="#C5E2F9"/>
      <stop offset="0.7615" stop-color="#D0EAFE"/>
      <stop offset="1" stop-color="#D4ECFF"/>
    </linearGradient>
    <clipPath id="clip0">
      <rect width="303.436" height="327.71" fill="white" transform="translate(45 299.657)"/>
    </clipPath>
  </defs>
</svg>
