<svg width="672" height="710" viewBox="0 0 672 710" fill="none" xmlns="http://www.w3.org/2000/svg">
  <path
    d="M151.718 353.657C141.904 353.657 132.203 355.345 123.066 358.834C115.283 361.76 14.3258 421.517 14.3258 421.517C5.52727 426.582 0 436.147 0 446.276V587.961C0 598.202 5.52727 607.655 14.3258 612.719L14.4386 612.832C64.748 643.104 119.231 674.84 125.999 677.091C134.346 679.904 143.032 681.367 151.831 681.367C160.629 681.367 169.315 679.904 177.662 677.091C187.476 673.715 289.223 612.719 289.223 612.719C298.021 607.655 303.548 598.089 303.548 587.961V446.276C303.548 436.035 298.021 426.582 289.223 421.517H289.11C240.944 393.045 186.348 361.197 180.482 358.946C171.232 355.345 161.532 353.657 151.718 353.657Z"
    fill="#C58511"/>

  <path
    d="M368.169 54.2671C348.542 54.2671 329.14 57.6432 310.866 64.6206C295.3 70.4725 93.3854 189.988 93.3854 189.988C75.7884 200.116 64.7339 219.248 64.7339 239.505V522.875C64.7339 543.357 75.7884 562.263 93.3854 572.392L93.611 572.617C194.23 633.162 303.196 696.633 316.732 701.135C333.427 706.762 350.798 709.688 368.395 709.688C385.992 709.688 403.363 706.762 420.058 701.135C439.686 694.383 643.179 572.392 643.179 572.392C660.776 562.263 671.831 543.132 671.831 522.875V239.505C671.831 219.023 660.776 200.116 643.179 189.988H642.953C546.621 133.044 437.43 69.3472 425.698 64.8457C407.199 57.6432 387.797 54.2671 368.169 54.2671Z"
    fill="url(#paint0_linear)"/>
  <path
    d="M368.169 54.2671C348.542 54.2671 329.14 57.6432 310.866 64.6206C295.3 70.4725 93.3854 189.988 93.3854 189.988C75.7884 200.116 64.7339 219.248 64.7339 239.505V522.875C64.7339 543.357 75.7884 562.263 93.3854 572.392L93.611 572.617C194.23 633.162 303.196 696.634 316.732 701.135C333.427 706.762 350.798 709.688 368.395 709.688C385.992 709.688 403.363 706.762 420.058 701.135C439.686 694.383 643.179 572.392 643.179 572.392C660.776 562.263 671.831 543.132 671.831 522.875V239.505C671.831 219.023 660.776 200.116 643.179 189.988H642.953C546.621 133.044 437.429 69.3472 425.698 64.8457C407.199 57.6432 387.797 54.2671 368.169 54.2671Z"
    fill="white"/>
  <path
    d="M153.342 418.171L312.191 326.455L133.127 334.923L121.911 345.476L119.564 361.5L121.39 372.313L126.607 385.471L131.954 395.763L137.953 403.45L153.342 418.171Z"
    fill="url(#paint1_linear)"/>
  <path
    d="M286.89 242.816C287.151 242.686 287.412 242.556 287.673 242.295C294.063 238.908 302.671 239.559 312.191 245.031L529.206 370.229C528.293 370.88 527.511 371.792 526.728 372.704L518.512 368.014L474.561 463.378L451.869 494.254L437.001 499.465L422.133 493.603L349.882 452.565L206.814 370.88L154.386 339.353L140.692 335.054L128.303 334.272L286.89 242.816Z"
    fill="#D4ECFF"/>
  <path
    d="M458.389 475.755C458.389 453.347 442.608 425.988 423.046 414.654V418.562C440.652 428.724 454.998 453.477 454.998 473.801C454.998 494.124 440.652 502.332 423.046 492.17L153.342 336.747C143.561 331.145 134.823 330.624 128.433 334.272L286.89 242.816C287.151 242.686 287.412 242.556 287.672 242.295C294.063 238.908 302.67 239.559 312.191 245.031L529.206 370.229C528.293 370.88 527.51 371.792 526.728 372.704L518.511 368.014L474.561 463.378L456.433 488.131C457.606 484.483 458.389 480.445 458.389 475.755Z"
    fill="url(#paint2_linear)"/>
  <path
    d="M458.39 473.671C458.39 474.062 458.39 474.452 458.39 474.843C458.129 463.639 454.086 451.263 447.695 440.45C447.956 440.319 448.347 440.059 448.608 439.928C454.607 450.611 458.39 462.727 458.39 473.671Z"
    fill="white"/>
  <path
    d="M153.342 334.532L423.046 490.085C440.261 499.986 454.346 492.3 454.998 473.019C454.998 473.279 454.998 473.54 454.998 473.8C454.998 494.124 440.652 502.331 423.046 492.17L153.342 336.747C143.561 331.145 134.823 330.624 128.433 334.272L136.127 329.842C141.214 329.451 147.082 331.015 153.342 334.532Z"
    fill="white"/>
  <path
    d="M474.561 461.032L518.512 365.668L526.728 370.358C527.119 369.967 527.38 369.577 527.771 369.186L529.206 369.967C528.293 370.619 527.511 371.531 526.728 372.443L518.512 367.753L474.561 463.117L456.433 487.87C456.824 486.827 457.216 485.525 457.476 484.352L474.561 461.032Z"
    fill="white"/>
  <path
    d="M581.895 323.068C601.328 334.272 617.239 361.63 617.239 384.169C617.239 394.982 613.587 402.668 607.588 406.577H607.457C607.066 406.837 606.675 406.967 606.414 407.228L448.087 498.553L457.738 481.096L456.564 463.639L453.565 453.868L448.87 443.445C448.87 443.445 444.957 436.28 444.696 436.15C444.435 436.02 438.958 428.854 438.958 428.854L433.611 423.252L427.872 419.604L423.047 414.914L581.895 323.068Z"
    fill="url(#paint3_linear)"/>
  <path
    d="M153.343 418.172V414.264C135.737 404.102 121.391 379.349 121.391 359.026C121.391 338.702 135.737 330.495 153.343 340.656L423.047 496.209C442.479 507.413 458.39 498.294 458.39 475.886C458.39 453.478 442.609 426.119 423.047 414.785V418.693C440.653 428.855 454.999 453.608 454.999 473.931C454.999 494.255 440.653 502.462 423.047 492.301L153.343 336.748C133.911 325.544 118 334.664 118 357.071C118 379.479 133.911 406.838 153.343 418.172Z"
    fill="#173D7A"/>
  <path d="M404.788 391.985L284.804 322.026L280.239 324.761L400.223 394.591L404.788 391.985Z" fill="#5793CE"/>
  <path d="M402.701 367.493L304.887 310.561L300.323 313.166L398.136 370.098L402.701 367.493Z" fill="#5793CE"/>
  <path d="M385.747 369.185L294.846 316.292L290.281 318.898L381.182 371.921L385.747 369.185Z" fill="#5793CE"/>
  <path d="M414.83 386.253L392.659 373.225L388.094 375.961L410.265 388.858L414.83 386.253Z" fill="#5793CE"/>
  <path
    d="M417.961 376.482C417.569 376.352 417.439 375.961 417.439 375.57L419.134 362.933L427.872 367.102L419.004 376.221C418.743 376.612 418.352 376.612 417.961 376.482Z"
    fill="white"/>
  <path
    d="M450.826 336.356C443.262 336.877 433.611 332.187 429.437 325.934C425.134 319.68 427.872 314.078 435.437 313.557C443.001 313.036 452.652 317.726 456.825 323.979C460.998 330.363 458.39 335.835 450.826 336.356Z"
    fill="#396CAA"/>
  <path
    d="M528.946 194.092L493.211 176.635L428.003 317.596L443.522 325.152L428.003 317.596L427.481 318.638C420.569 332.839 417.569 348.733 419.004 364.627C418.743 365.148 418.873 365.929 419.395 366.711C420.569 368.405 423.047 369.577 425.003 369.447C425.916 369.447 426.568 369.056 426.829 368.535L430.22 366.06C440.523 358.504 449.13 348.863 455.39 337.659L458.39 332.318L528.946 194.092Z"
    fill="url(#paint4_linear)"/>
  <path
    d="M520.208 198.912C511.209 199.564 499.993 194.092 494.907 186.666C489.821 179.24 493.081 172.726 501.95 172.075C510.948 171.423 522.164 176.895 527.251 184.321C532.337 191.747 529.207 198.261 520.208 198.912Z"
    fill="#D4ECFF"/>
  <path
    d="M523.077 192.789C514.078 193.44 502.863 187.969 497.776 180.543C492.69 173.117 495.95 166.603 504.949 165.952C513.948 165.3 525.164 170.772 530.25 178.198C535.206 185.754 532.076 192.268 523.077 192.789Z"
    fill="#D4ECFF"/>
  <path
    d="M519.687 199.954C510.688 200.605 499.472 195.134 494.386 187.708C489.3 180.282 492.56 173.768 501.559 173.117C510.558 172.465 521.774 177.937 526.86 185.363C531.816 192.789 528.686 199.303 519.687 199.954Z"
    fill="#5793CE"/>
  <path
    d="M519.686 199.954C510.688 200.606 499.472 195.134 494.385 187.708C492.299 184.712 491.647 181.846 492.168 179.501C489.69 182.237 489.69 186.405 492.82 190.835C497.907 198.261 509.123 203.733 518.121 203.081C523.468 202.69 526.729 200.215 527.381 196.698C525.816 198.521 523.208 199.694 519.686 199.954Z"
    fill="white"/>
  <path d="M496.606 169.893L492.725 177.858L528.488 195.25L532.37 187.285L496.606 169.893Z" fill="#5793CE"/>
  <path
    d="M599.894 48.5706L564.159 31.1133L496.603 169.86L496.212 170.642H496.342C495.56 173.117 496.081 176.244 498.298 179.631C503.385 187.057 514.601 192.529 523.599 191.877C527.642 191.617 530.381 190.184 531.946 187.969H532.077L599.894 48.5706Z"
    fill="url(#paint5_linear)"/>
  <path
    d="M537.945 79.4466L535.206 75.4079C533.641 73.0629 533.772 69.8059 535.467 66.2884L542.901 51.0458C544.336 48.1797 547.987 45.7044 551.248 45.4438L558.551 44.9227C559.725 44.7924 561.159 44.141 562.072 43.2291L565.463 43.4896L563.116 39.9721C562.855 39.451 562.203 39.1904 561.29 39.1904L553.986 39.7115C547.335 40.2327 539.51 45.4438 536.641 51.4366L529.207 66.6793C526.729 71.7601 526.599 76.3199 528.816 79.7071L531.555 83.7458C533.12 86.0908 532.989 89.3478 531.294 92.8653L501.428 154.096C501.037 154.878 501.037 155.529 501.428 156.05L503.776 159.438L504.689 156.311C505.993 155.79 507.167 154.748 507.688 153.705L537.554 92.4744C540.032 87.3936 540.162 82.7035 537.945 79.4466Z"
    fill="#5793CE"/>
  <path
    d="M537.683 78.9257C536.118 76.5807 536.249 73.3237 537.944 69.8062L545.378 54.5636C546.812 51.6975 550.464 49.2222 553.725 48.9616L561.028 48.4405C562.723 48.3102 564.81 47.0074 565.593 45.4441C566.375 43.8807 565.593 42.7082 563.897 42.8385L556.594 43.3596C549.942 43.8807 542.117 49.0919 539.248 55.0847L531.814 70.3273C529.337 75.4082 529.206 79.9679 531.423 83.3552L534.032 87.2636C535.597 89.6086 535.466 92.8655 533.771 96.3831L503.905 157.614C503.123 159.177 503.905 160.35 505.601 160.22C507.296 160.089 509.383 158.787 510.165 157.223L540.031 95.9922C542.509 90.9114 542.639 86.3516 540.422 82.9644L537.683 78.9257Z"
    fill="#5793CE"/>
  <path
    d="M591.155 53.2609C582.156 53.9123 570.94 48.4406 565.854 41.0147C560.768 33.5888 564.028 27.0749 572.896 26.4235C581.895 25.7721 593.111 31.2438 598.197 38.6697C603.284 46.0956 600.154 52.6095 591.155 53.2609Z"
    fill="#D4ECFF"/>
  <path
    d="M587.894 48.4402C582.547 48.5705 575.635 44.7924 572.505 39.9721C569.244 35.1518 570.94 31.2434 576.287 31.1131C581.634 30.9829 588.546 34.7609 591.676 39.5812C594.936 44.4016 593.241 48.3099 587.894 48.4402Z"
    fill="#396CAA"/>
  <path
    d="M591.416 41.9267L576.026 34.3705L590.503 4.79724C592.589 0.498045 597.676 -1.19558 601.979 0.888881C606.283 2.97334 607.979 8.05421 605.892 12.3534L591.416 41.9267Z"
    fill="#C58511"/>
  <path
    d="M587.633 43.8809C583.721 44.1415 578.895 41.7965 576.678 38.5395C574.461 35.2825 575.896 32.5467 579.808 32.2861C583.721 32.0256 588.546 34.3706 590.764 37.6275C592.85 40.8845 591.416 43.6204 587.633 43.8809Z"
    fill="#C58511"/>
  <path
    d="M321.711 431.722C321.972 431.591 322.102 431.461 322.363 431.331C345.838 417.782 345.838 395.895 322.363 382.346C298.888 368.797 260.937 368.797 237.461 382.346C236.94 382.607 236.549 382.997 236.027 383.258C238.505 384.04 241.113 385.212 243.721 386.645L321.711 431.722Z"
    fill="#5793CE"/>
  <path
    d="M339.97 385.343V374.27H336.84C333.971 369.319 329.276 364.759 322.494 360.851C299.019 347.302 261.067 347.302 237.592 360.851C230.81 364.759 225.985 369.449 223.246 374.27H220.116V385.213C220.116 394.072 225.985 403.061 237.723 409.836C261.198 423.385 299.149 423.385 322.624 409.836C334.101 403.061 339.97 394.202 339.97 385.343Z"
    fill="#9B5D04"/>
  <path
    d="M322.365 398.761C298.889 412.31 260.938 412.31 237.463 398.761C213.988 385.212 213.988 363.325 237.463 349.776C260.938 336.227 298.889 336.227 322.365 349.776C345.84 363.325 345.84 385.212 322.365 398.761Z"
    fill="#C58511"/>
  <path
    d="M322.364 398.761C298.889 412.31 260.938 412.31 237.463 398.761C226.247 392.247 220.378 383.909 219.987 375.441C219.465 384.691 225.334 393.94 237.463 400.976C260.938 414.525 298.889 414.525 322.364 400.976C334.624 393.94 340.362 384.56 339.84 375.441C339.449 383.909 333.711 392.247 322.364 398.761Z"
    fill="white"/>
  <path
    d="M251.026 385.733C249.983 385.212 249.461 384.3 249.461 383.519V360.98C249.461 359.287 251.939 357.854 254.808 357.854C257.808 357.854 260.155 359.287 260.155 360.98V379.741L314.539 373.096C317.408 372.706 320.278 373.878 320.93 375.441C321.582 377.135 319.626 378.829 316.756 379.089L255.851 386.515C254.286 386.645 252.591 386.515 251.287 385.864C251.287 385.864 251.156 385.864 251.026 385.733Z"
    fill="white"/>
  <defs>
    <linearGradient id="paint0_linear" x1="368.282" y1="54.2671" x2="368.282" y2="709.688"
                    gradientUnits="userSpaceOnUse">
      <stop stop-color="white"/>
      <stop offset="1" stop-color="white" stop-opacity="0"/>
    </linearGradient>
    <linearGradient id="paint1_linear" x1="119.552" y1="372.27" x2="312.186" y2="372.27" gradientUnits="userSpaceOnUse">
      <stop stop-color="#699DD1"/>
      <stop offset="1" stop-color="#173D7A"/>
    </linearGradient>
    <linearGradient id="paint2_linear" x1="128.387" y1="368.446" x2="529.199" y2="368.446"
                    gradientUnits="userSpaceOnUse">
      <stop stop-color="#E9F6FF"/>
      <stop offset="1" stop-color="#D4ECFF"/>
    </linearGradient>
    <linearGradient id="paint3_linear" x1="423.065" y1="410.847" x2="617.216" y2="410.847"
                    gradientUnits="userSpaceOnUse">
      <stop stop-color="#699DD1"/>
      <stop offset="1" stop-color="#173D7A"/>
    </linearGradient>
    <linearGradient id="paint4_linear" x1="418.617" y1="273.041" x2="528.996" y2="273.041"
                    gradientUnits="userSpaceOnUse">
      <stop stop-color="#699DD1"/>
      <stop offset="1" stop-color="#173D7A"/>
    </linearGradient>
    <linearGradient id="paint5_linear" x1="501.147" y1="126.734" x2="726.101" y2="48.3472"
                    gradientUnits="userSpaceOnUse">
      <stop stop-color="#E9F6FF"/>
      <stop offset="1" stop-color="#5793CE"/>
    </linearGradient>
    <clipPath id="clip0">
      <rect width="303.436" height="327.71" fill="white" transform="translate(0 353.657)"/>
    </clipPath>
  </defs>
</svg>
