<svg width="71" height="76" viewBox="0 0 71 76" fill="none" xmlns="http://www.w3.org/2000/svg">
<path d="M66.5484 15.1997C64.2031 13.8348 44.3305 1.98504 42.479 1.30259C38.0354 -0.372511 33.0364 -0.372511 28.5929 1.30259C26.6797 2.04708 24.9516 3.03973 23.347 4.34259L4.58524 15.1997C2.05487 16.6887 0.511963 19.3565 0.511963 22.2724V53.4789C0.511963 56.3948 2.05487 59.1246 4.58524 60.5516C6.86874 61.9165 26.9882 74.0765 29.3335 74.883C31.3701 75.5655 33.4684 75.9377 35.5668 75.9377C37.6651 75.9377 39.7635 75.5655 41.8001 74.883C44.2071 74.0765 46.3671 72.8357 48.2803 71.1606L66.5484 60.6136C69.0787 59.1867 70.6216 56.4569 70.6216 53.541V22.2724C70.5599 19.3565 69.017 16.6887 66.5484 15.1997Z" fill="#02395E"/>
<path d="M68.3998 53.5409C68.3998 55.6503 67.2889 57.6356 65.4374 58.6903L52.3536 66.2592C52.3536 66.1972 52.4153 66.1972 52.4153 66.1352C52.6004 65.825 52.7239 65.5768 52.909 65.2666C52.9707 65.1425 53.0324 65.0184 53.0942 64.8943C53.2176 64.6462 53.341 64.398 53.4027 64.1499C53.4644 64.0258 53.5262 63.9017 53.5879 63.7776C53.7113 63.5294 53.773 63.2813 53.8965 63.0331C53.9582 62.909 53.9582 62.785 54.0199 62.7229C54.1433 62.3507 54.2668 61.9784 54.3902 61.6062V61.5441C54.5136 61.1719 54.5753 60.8617 54.6371 60.4894C54.6371 60.3654 54.6988 60.2413 54.6988 60.1172C54.7605 59.869 54.8222 59.5588 54.8222 59.3107C54.8222 59.1866 54.8839 59.0625 54.8839 58.8764C54.9456 58.6282 54.9456 58.318 54.9456 58.0699C54.9456 57.9458 54.9456 57.8217 54.9456 57.6976C54.9456 57.3254 55.0074 56.8911 55.0074 56.5188C55.0074 52.7964 53.9582 49.3841 52.2301 46.4062C51.8598 47.1507 51.3661 47.8331 50.8724 48.4535C52.1684 50.8731 52.8473 53.6029 52.8473 56.5188C52.8473 61.4821 50.6872 66.2592 46.9842 69.5474C45.2562 71.0364 43.2813 72.2152 41.1212 72.9596C37.5417 74.2005 33.6535 74.2005 30.074 72.9596C28.4694 72.4013 14.6449 64.2119 5.75779 58.8144C3.9063 57.7597 2.79541 55.7743 2.79541 53.665V22.2723C2.79541 20.1629 3.9063 18.1776 5.75779 17.1229L18.9651 9.4919C18.9033 9.55394 18.9034 9.67802 18.8416 9.74006C18.7182 9.98823 18.5948 10.2364 18.4096 10.4846C18.3479 10.6086 18.2862 10.7327 18.2245 10.8568C18.101 11.105 17.9776 11.3531 17.8542 11.6013C17.7925 11.7254 17.7307 11.8495 17.669 11.9735C17.5456 12.2837 17.4222 12.5319 17.3604 12.8421C17.2987 12.9041 17.2987 13.0282 17.237 13.0903C17.1136 13.4625 16.9901 13.8348 16.8667 14.269C16.8667 14.3931 16.805 14.4552 16.805 14.5792C16.7433 14.8895 16.6816 15.1376 16.6198 15.4478C16.6198 15.5719 16.5581 15.758 16.5581 15.8821C16.4964 16.1303 16.4347 16.4405 16.4347 16.6886C16.4347 16.8127 16.373 16.9988 16.373 17.1229C16.3113 17.4331 16.3113 17.6813 16.3113 17.9915C16.3113 18.1156 16.3113 18.2397 16.2496 18.3637C16.2496 18.798 16.1878 19.1703 16.1878 19.6046C16.1878 22.6446 16.8667 25.5605 18.1628 28.1662C18.4096 27.6078 18.8416 27.1115 19.3971 26.7392C19.5205 26.6152 19.7057 26.5531 19.8291 26.4911C18.9033 24.3817 18.4096 22.0862 18.4096 19.6046C18.4096 19.2943 18.4096 18.9221 18.4096 18.6119C18.4713 17.9915 18.5331 17.309 18.5948 16.6886C18.6565 16.1923 18.7799 15.6339 18.9033 15.1376C19.8291 11.6013 21.804 8.43721 24.7047 6.1417C26.1242 4.96292 27.7288 4.03231 29.4568 3.4119C31.4317 2.66741 33.4684 2.29517 35.6285 2.29517C37.7885 2.29517 39.8252 2.66741 41.8001 3.4119C43.0961 3.90823 56.6737 11.9115 65.4991 17.185C67.3506 18.2397 68.4615 20.225 68.4615 22.3343V53.5409H68.3998Z" fill="url(#paint0_linear)"/>
<path d="M66.5484 15.1997C64.2031 13.8348 44.3305 1.98504 42.479 1.30259C38.0354 -0.372511 33.0364 -0.372511 28.5929 1.30259C26.6797 2.04708 24.9516 3.03973 23.347 4.34259L4.58524 15.1997C2.05487 16.6887 0.511963 19.3565 0.511963 22.2724V53.4789C0.511963 56.3948 2.05487 59.1246 4.58524 60.5516C6.86874 61.9165 26.9882 74.0765 29.3335 74.883C31.3701 75.5655 33.4684 75.9377 35.5668 75.9377C37.6651 75.9377 39.7635 75.5655 41.8001 74.883C44.2071 74.0765 46.3671 72.8357 48.2803 71.1606L66.5484 60.6136C69.0787 59.1867 70.6216 56.4569 70.6216 53.541V22.2724C70.5599 19.3565 69.017 16.6887 66.5484 15.1997ZM68.3998 53.541C68.3998 55.6504 67.2889 57.6357 65.4375 58.6903L52.3536 66.2593C52.3536 66.1973 52.4153 66.1973 52.4153 66.1352C52.6005 65.825 52.7239 65.5769 52.9091 65.2667C52.9708 65.1426 53.0325 65.0185 53.0942 64.8944C53.2176 64.6463 53.3411 64.3981 53.4028 64.1499C53.4645 64.0259 53.5262 63.9018 53.5879 63.7777C53.7114 63.5295 53.7731 63.2814 53.8965 63.0332C53.9582 62.9091 53.9582 62.785 54.02 62.723C54.1434 62.3508 54.2668 61.9785 54.3903 61.6063V61.5442C54.5137 61.172 54.5754 60.8618 54.6371 60.4895C54.6371 60.3655 54.6988 60.2414 54.6988 60.1173C54.7606 59.8691 54.8223 59.5589 54.8223 59.3108C54.8223 59.1867 54.884 59.0626 54.884 58.8765C54.9457 58.6283 54.9457 58.3181 54.9457 58.0699C54.9457 57.9459 54.9457 57.8218 54.9457 57.6977C54.9457 57.3255 55.0074 56.8912 55.0074 56.5189C55.0074 52.7965 53.9582 49.3842 52.2302 46.4063C51.8599 47.1508 51.3662 47.8332 50.8724 48.4536C52.1685 50.8732 52.8473 53.603 52.8473 56.5189C52.8473 61.4822 50.6873 66.2593 46.9843 69.5475C45.2562 71.0365 43.2813 72.2152 41.1213 72.9597C37.5417 74.2006 33.6536 74.2006 30.074 72.9597C28.4694 72.4014 14.645 64.212 5.75784 58.8144C3.90636 57.7597 2.79546 55.7744 2.79546 53.665V22.2724C2.79546 20.163 3.90636 18.1777 5.75784 17.123L18.9651 9.49198C18.9034 9.55402 18.9034 9.6781 18.8417 9.74014C18.7183 9.98831 18.5948 10.2365 18.4097 10.4846C18.348 10.6087 18.2862 10.7328 18.2245 10.8569C18.1011 11.105 17.9777 11.3532 17.8542 11.6014C17.7925 11.7254 17.7308 11.8495 17.6691 11.9736C17.5456 12.2838 17.4222 12.532 17.3605 12.8422C17.2988 12.9042 17.2988 13.0283 17.2371 13.0903C17.1136 13.4626 16.9902 13.8348 16.8668 14.2691C16.8668 14.3932 16.8051 14.4552 16.8051 14.5793C16.7433 14.8895 16.6816 15.1377 16.6199 15.4479C16.6199 15.572 16.5582 15.7581 16.5582 15.8822C16.4965 16.1303 16.4348 16.4405 16.4348 16.6887C16.4348 16.8128 16.373 16.9989 16.373 17.123C16.3113 17.4332 16.3113 17.6814 16.3113 17.9916C16.3113 18.1157 16.3113 18.2397 16.2496 18.3638C16.2496 18.7981 16.1879 19.1703 16.1879 19.6046C16.1879 22.6446 16.8668 25.5606 18.1628 28.1663C18.4097 27.6079 18.8417 27.1116 19.3971 26.7393C19.5206 26.6152 19.7057 26.5532 19.8291 26.4912C18.9034 24.3818 18.4097 22.0863 18.4097 19.6046C18.4097 19.2944 18.4097 18.9222 18.4097 18.612C18.4714 17.9916 18.5331 17.3091 18.5948 16.6887C18.6565 16.1924 18.78 15.634 18.9034 15.1377C19.8291 11.6014 21.8041 8.43729 24.7047 6.14177C26.1242 4.963 27.7288 4.03239 29.4569 3.41198C31.4318 2.66749 33.4684 2.29524 35.6285 2.29524C37.7886 2.29524 39.8252 2.66749 41.8001 3.41198C43.0962 3.90831 56.6738 11.9116 65.4992 17.185C67.3507 18.2397 68.4616 20.225 68.4616 22.3344V53.541H68.3998Z" fill="url(#paint1_linear)"/>
<path d="M45.6265 31.4541C46.4905 31.1439 47.3545 30.8337 48.2185 30.4615C48.8974 30.1513 48.9591 29.2206 48.2803 28.9104C48.0334 28.7864 47.6014 28.8484 47.2928 28.9725C45.5647 29.717 43.8367 29.9031 42.0469 29.3447C41.4298 29.1586 40.8743 28.9725 40.2572 28.8484C38.7142 28.4762 37.1096 28.166 35.505 27.8557C35.505 27.3594 35.505 26.8011 35.505 26.3047C35.505 25.6843 35.1347 25.3121 34.641 25.3121C34.0855 25.3121 33.7769 25.6843 33.7769 26.3047C33.7769 26.8631 33.7769 27.4215 33.7769 27.9798C33.2832 28.0419 32.7895 28.0419 32.3575 28.166C30.5677 28.6002 28.7162 28.9725 26.9264 29.4688C25.3218 29.9031 23.7789 29.779 22.236 29.1586C22.0509 29.0966 21.8657 28.9725 21.6189 28.9104C21.4337 28.8484 21.2486 28.8484 21.0634 28.9104C20.7548 29.0345 20.508 29.2827 20.4462 29.717C20.3845 30.2133 20.6931 30.4615 21.0634 30.6476C21.6189 30.8337 22.236 31.0819 22.7915 31.268C23.0383 31.33 23.2852 31.4541 23.5321 31.5162C23.4703 31.6402 23.4086 31.7643 23.4086 31.8884C23.4086 31.9504 23.3469 32.0125 23.3469 32.0745C23.0383 32.6949 22.7297 33.3774 22.4829 33.9978C21.3103 36.4794 20.1994 38.9611 19.0268 41.4427C18.9033 41.6908 18.7799 42.001 18.7799 42.2492C18.9033 44.2345 19.5205 46.0337 21.1868 47.2745C22.3594 48.1431 23.6555 48.5153 24.9515 48.5153C26.1859 48.5153 27.3585 48.081 28.4076 47.3986C29.7037 46.53 30.6911 45.1031 30.9997 43.3659C30.9997 43.3039 30.9997 43.3039 30.9997 43.2419C31.0614 42.8076 31.0614 42.3733 30.9997 41.939C30.938 41.6288 30.8763 41.3806 30.7529 41.0704C30.2591 40.0778 29.8271 39.0231 29.3334 38.0304C28.9014 37.0378 28.4076 36.0451 27.9756 35.0525C27.4819 33.9978 27.0499 32.9431 26.5562 31.9504C26.4944 31.7643 26.4327 31.6402 26.371 31.4541C27.1116 31.268 27.7905 31.0819 28.4694 30.8957C29.642 30.5855 30.7529 30.2133 31.9255 29.9651C33.1598 29.717 34.4558 29.5929 35.7519 29.779C36.369 29.8411 36.9245 29.9651 37.5416 30.0892C39.3931 30.4615 41.1829 30.8957 43.0961 31.33C42.9727 31.6402 42.9109 31.8264 42.7875 32.0125C41.9852 33.8117 41.1212 35.6108 40.3189 37.4721C40.0103 38.1545 39.7017 38.837 39.3931 39.5194C39.0845 40.1398 38.8377 40.7602 38.5291 41.4427C38.4674 41.5668 38.4057 41.6288 38.4057 41.7529C38.1588 41.877 38.0971 42.001 38.1588 42.1872C38.1588 42.4974 38.2205 42.8696 38.2822 43.1798C38.5291 44.7929 39.208 46.1578 40.5657 47.2125C40.6274 47.2745 40.7509 47.3366 40.8126 47.3366C41.8618 48.019 42.9727 48.3292 44.207 48.3292C44.7007 48.3292 45.1945 48.3292 45.7499 48.2672C47.1694 48.1431 48.4654 47.1504 49.3294 45.9096C49.8232 45.2272 50.1317 44.4206 50.3169 43.6761C50.5638 42.5594 50.502 41.4427 49.9466 40.5121C48.2185 37.6582 47.0459 34.4941 45.6265 31.4541ZM24.8898 46.5921C22.668 46.5921 21.0634 45.2892 20.6314 43.0557C23.4703 43.0557 26.3093 43.0557 29.1482 43.0557C28.7162 45.2892 27.1116 46.5921 24.8898 46.5921ZM26.8647 37.0378C27.4819 38.4647 28.1608 39.8296 28.7779 41.2566C26.1241 41.2566 23.5938 41.2566 21.0017 41.2566C21.9274 39.2092 22.8532 37.1619 23.8406 35.1145C24.1492 34.4321 24.4578 33.7496 24.7664 33.0672C24.8281 32.9431 24.8281 32.881 24.8898 32.757C25.0132 32.9431 25.075 33.1913 25.1984 33.3774C25.7538 34.6182 26.3093 35.797 26.8647 37.0378ZM41.8618 37.9684C42.6641 36.2313 43.4664 34.5562 44.2687 32.757C45.6265 35.6729 46.8608 38.4027 48.1568 41.2566C48.0334 41.2566 47.91 41.2566 47.7248 41.2566C46.4288 41.2566 45.1327 41.2566 43.775 41.2566C42.6024 41.2566 41.4915 41.2566 40.3189 41.2566C40.504 40.8223 40.6892 40.388 40.8743 40.0157C41.2446 39.2713 41.5532 38.6508 41.8618 37.9684ZM44.2687 46.5921C41.9852 46.5921 40.3189 45.2272 40.0103 43.0557C42.1704 43.0557 44.3304 43.0557 46.4905 43.0557C47.1694 43.0557 47.8482 43.0557 48.5271 43.0557C48.4654 43.6141 48.2803 44.1104 48.0334 44.5447C47.3545 45.7855 45.9968 46.5921 44.2687 46.5921Z" fill="url(#paint2_linear)"/>
<path d="M41.4302 50.1289C40.9365 50.1289 40.4427 50.1289 39.949 50.1289C38.653 50.1289 37.3569 50.1289 36.0609 50.1289C35.8757 50.1289 35.6906 50.1289 35.4437 50.1289C35.4437 49.8187 35.4437 49.5706 35.4437 49.3845C35.4437 47.3991 35.4437 45.4138 35.4437 43.4285C35.4437 42.7461 35.4437 42.0636 35.4437 41.3812C35.4437 40.6367 35.4437 39.8922 35.4437 39.1477C35.4437 38.4032 35.4437 37.6587 35.4437 36.9142C35.4437 35.5493 35.4437 34.1844 35.4437 32.8816C35.4437 32.8196 35.4437 32.7575 35.4437 32.6334C35.4437 32.5093 35.4437 32.3853 35.4437 32.2612C35.3203 31.8269 35.0734 31.5787 34.5797 31.5787C34.086 31.5787 33.8391 31.8269 33.7157 32.2612C33.7157 32.3853 33.7157 32.4473 33.7157 32.5714C33.7157 32.6334 33.7157 32.7575 33.7157 32.8196C33.7157 34.1224 33.7157 35.4873 33.7157 36.8522C33.7157 37.5967 33.7157 38.3412 33.7157 39.0857C33.7157 39.8922 33.7157 40.6987 33.7157 41.5053C33.7157 41.5673 33.7157 41.6293 33.7157 41.6914C33.7157 42.3118 33.7157 42.9943 33.7157 43.6147C33.7157 45.7861 33.7157 47.9575 33.7157 50.191C33.4688 50.191 33.2219 50.191 33.0368 50.191C31.7407 50.191 30.4447 50.191 29.0869 50.191C28.5932 50.191 28.1612 50.191 27.6675 50.191C26.9886 50.191 26.6183 50.5012 26.6183 51.1216C26.6183 51.68 26.9886 51.9902 27.6675 51.9902C32.2345 51.9902 36.8015 51.9902 41.3685 51.9902C42.0473 51.9902 42.4794 51.68 42.4794 51.1216C42.4794 51.1216 42.4794 51.1216 42.4794 51.0596C42.4794 50.4391 42.1091 50.1289 41.4302 50.1289Z" fill="url(#paint3_linear)"/>
<defs>
<linearGradient id="paint0_linear" x1="16.2861" y1="18.5447" x2="70.9109" y2="72.8838" gradientUnits="userSpaceOnUse">
<stop stop-color="#00CFFF" stop-opacity="0"/>
<stop offset="1" stop-color="#00CFFF" stop-opacity="0.3"/>
</linearGradient>
<linearGradient id="paint1_linear" x1="11.426" y1="9.95176" x2="59.4321" y2="65.0104" gradientUnits="userSpaceOnUse">
<stop offset="0.005618" stop-color="#EFC981"/>
<stop offset="0.1854" stop-color="#E6C081"/>
<stop offset="0.5955" stop-color="#C58511"/>
<stop offset="0.8106" stop-color="#E5B76D"/>
<stop offset="0.8708" stop-color="#EEC687"/>
<stop offset="1" stop-color="#F2E4CE"/>
</linearGradient>
<linearGradient id="paint2_linear" x1="10.8286" y1="10.4722" x2="58.8347" y2="65.5309" gradientUnits="userSpaceOnUse">
<stop offset="0.005618" stop-color="#EFC981"/>
<stop offset="0.1854" stop-color="#E6C081"/>
<stop offset="0.5955" stop-color="#C58511"/>
<stop offset="0.8106" stop-color="#E5B76D"/>
<stop offset="0.8708" stop-color="#EEC687"/>
<stop offset="1" stop-color="#F2E4CE"/>
</linearGradient>
<linearGradient id="paint3_linear" x1="6.98512" y1="13.8243" x2="54.9912" y2="68.8829" gradientUnits="userSpaceOnUse">
<stop offset="0.005618" stop-color="#EFC981"/>
<stop offset="0.1854" stop-color="#E6C081"/>
<stop offset="0.5955" stop-color="#C58511"/>
<stop offset="0.8106" stop-color="#E5B76D"/>
<stop offset="0.8708" stop-color="#EEC687"/>
<stop offset="1" stop-color="#F2E4CE"/>
</linearGradient>
</defs>
</svg>
