<svg width="20" height="20" viewBox="0 0 20 20" fill="none" xmlns="http://www.w3.org/2000/svg">
<path d="M16.875 1.55H15.85V0.775C15.85 0.35 15.5 0 15.075 0C14.65 0 14.3 0.35 14.3 0.775V1.55H10.75V0.775C10.75 0.35 10.4 0 9.95 0C9.525 0 9.175 0.35 9.175 0.775V1.55H5.65V0.775C5.65 0.35 5.3 0 4.875 0C4.45 0 4.1 0.35 4.1 0.775V1.55H3.125C1.4 1.55 0 2.975 0 4.675V16.85C0 18.6 1.4 20 3.125 20H9.1C9.525 20 9.875 19.65 9.875 19.225C9.875 18.8 9.525 18.45 9.1 18.45H3.125C2.275 18.45 1.575 17.75 1.575 16.9V4.675C1.575 3.825 2.275 3.125 3.125 3.125H4.1V3.9C4.1 4.325 4.45 4.675 4.875 4.675C5.3 4.675 5.65 4.325 5.65 3.9V3.125H9.175V3.9C9.175 4.325 9.525 4.675 9.95 4.675C10.375 4.675 10.725 4.325 10.725 3.9V3.125H14.275V3.9C14.275 4.325 14.625 4.675 15.05 4.675C15.475 4.675 15.825 4.325 15.825 3.9V3.125H16.85C17.7 3.125 18.4 3.825 18.4 4.675V9.125C18.4 9.55 18.75 9.9 19.175 9.9C19.6 9.9 19.95 9.55 19.95 9.125V4.675C20 2.975 18.6 1.55 16.875 1.55ZM16.4 14.475H16.05V13.65C16.05 13.225 15.7 12.875 15.275 12.875C14.85 12.875 14.5 13.225 14.5 13.65V15.25C14.5 15.675 15.025 16 15.275 16.025H16.4C16.825 16.025 17.175 15.675 17.175 15.25C17.175 14.825 16.825 14.475 16.4 14.475ZM18.425 15.275C18.425 13.525 17 12.1 15.25 12.1C13.5 12.1 12.075 13.525 12.075 15.275C12.075 17.025 13.5 18.45 15.25 18.45C17 18.45 18.425 17 18.425 15.275ZM20 15.275C20 17.875 17.875 20 15.275 20C12.675 20 10.55 17.875 10.55 15.275C10.55 12.675 12.675 10.55 15.275 10.55C17.875 10.55 20 12.65 20 15.275Z" fill="#02395E"/>
</svg>
