<svg width="80" height="57" viewBox="0 0 80 57" fill="none" xmlns="http://www.w3.org/2000/svg">
<g clip-path="url(#clip0)">
<path d="M71.207 0H8.79316C3.96558 0 6.10352e-05 4.10972 6.10352e-05 9.11285V47.8871C6.10352e-05 52.8903 3.96558 57 8.79316 57H71.207C76.0345 57 80.0001 52.8903 80.0001 47.8871V9.11285C80.0001 4.10972 76.0345 0 71.207 0ZM8.79316 5.18182H71.207C73.2759 5.18182 75.0001 6.96865 75.0001 9.11285V14.2947H5.00006V9.11285C5.00006 6.96865 6.7242 5.18182 8.79316 5.18182ZM71.207 51.8182H8.79316C6.7242 51.8182 5.00006 50.0313 5.00006 47.8871V19.4765H75.0001V47.8871C75.0001 50.0313 73.2759 51.8182 71.207 51.8182Z" fill="#C58511"/>
<path d="M17.4138 43.9559H15C13.6207 43.9559 12.5862 42.8838 12.5862 41.4543V38.9527C12.5862 37.5233 13.6207 36.4512 15 36.4512H17.4138C18.7931 36.4512 19.8276 37.5233 19.8276 38.9527V41.4543C20 42.8838 18.7931 43.9559 17.4138 43.9559Z" fill="#C58511"/>
</g>
<defs>
<clipPath id="clip0">
<rect width="80" height="57" fill="white"/>
</clipPath>
</defs>
</svg>
