<?xml version="1.0" encoding="utf-8"?>
<!-- Generator: Adobe Illustrator 24.0.2, SVG Export Plug-In . SVG Version: 6.00 Build 0)  -->
<svg version="1.1" id="Capa_1" xmlns="http://www.w3.org/2000/svg" xmlns:xlink="http://www.w3.org/1999/xlink" x="0px" y="0px"
	 viewBox="0 0 29 30" style="enable-background:new 0 0 29 30;" xml:space="preserve">
<style type="text/css">
	.st0{fill:none;}
	.st1{fill:#DCDCDC;}
</style>
<rect y="0" class="st0" width="29" height="30"/>
<g>
	<path class="st1" d="M22.9,15.7h4.6c0.8,0,1.5-0.7,1.5-1.5V1.5C29,0.7,28.3,0,27.5,0l-4.6,0c-0.8,0-1.5,0.7-1.5,1.5v12.6
		C21.3,15,22,15.7,22.9,15.7z"/>
	<path class="st1" d="M2.2,14.2h0.3c-1.3,0-2.4,1.1-2.4,2.4C0,17.9,1.1,19,2.4,19h7.8C9.3,20.5,8,23,8,24.9c0,3.1,1.7,4.8,2.8,5
		c1.1,0.2,1.9-0.4,2.3-1.3c0.3-0.9-0.2-2.7,0-3.4c0.3-1,2.1-2.3,4.4-5.3c2.1-2.7,1.8-5.8,1.8-5.8V9.9V5.6v-2c0-0.8-0.7-1.5-1.5-1.5
		H3.2c-1,0-1.8,0.8-1.8,1.7c0,1,0.8,1.7,1.8,1.7H3c-1.2,0-2.2,1-2.2,2.1c0,1.2,1,2.1,2.2,2.1H2.2C1,9.8,0,10.8,0,12
		C0,13.2,1,14.2,2.2,14.2z"/>
</g>
</svg>
