<svg width="111" height="121" viewBox="0 0 111 121" fill="none" xmlns="http://www.w3.org/2000/svg">
<path d="M70.1866 42.2234C68.3973 42.2234 66.9333 43.705 66.9333 45.5158C66.9333 47.3265 68.3973 48.8081 70.1866 48.8081C71.976 48.8081 73.44 47.3265 73.44 45.5158C73.44 43.705 71.976 42.2234 70.1866 42.2234ZM55.7092 46.5035C48.2265 46.5035 42.0452 52.7589 42.0452 60.3313C42.0452 67.9037 48.2265 74.1591 55.7092 74.1591C63.1919 74.1591 69.3733 67.9037 69.3733 60.3313C69.3733 52.7589 63.1919 46.5035 55.7092 46.5035ZM55.7092 69.2206C50.8292 69.2206 46.9252 65.2698 46.9252 60.3313C46.9252 55.3928 50.8292 51.442 55.7092 51.442C60.5892 51.442 64.4933 55.3928 64.4933 60.3313C64.4933 65.2698 60.4266 69.2206 55.7092 69.2206ZM83.3627 48.8081C83.3627 39.4249 75.88 31.8525 66.6079 31.8525H44.4852C35.2132 31.8525 27.7305 39.4249 27.7305 48.8081V71.196C27.7305 80.5792 35.2132 88.1516 44.4852 88.1516H66.6079C75.88 88.1516 83.3627 80.5792 83.3627 71.196V48.8081ZM77.9946 71.196C77.9946 77.6161 72.7893 82.8838 66.4453 82.8838H44.4852C38.1412 82.8838 32.9358 77.6161 32.9358 71.196V48.8081C32.9358 42.388 38.1412 37.1203 44.4852 37.1203H66.6079C72.952 37.1203 78.1573 42.388 78.1573 48.8081V71.196H77.9946Z" fill="#C58511"/>
<path d="M55.5476 120.088C51.9689 120.088 48.3902 119.43 44.9742 118.277C41.5582 117.125 20.5741 104.449 8.53675 97.2063C3.49407 94.0786 0.240723 88.4816 0.240723 82.3908V37.4503C0.240723 31.3595 3.49407 25.7625 8.53675 22.7994C13.9048 19.5071 40.9075 3.37465 43.8355 2.22233C51.4809 -0.740776 59.7769 -0.740776 67.2596 2.22233C69.8623 3.21003 87.9184 13.9101 102.558 22.6348C107.601 25.7625 110.854 31.3595 110.854 37.4503V82.3908C110.854 88.4816 107.601 94.0786 102.558 97.0417C97.1904 100.334 69.8623 116.796 66.1209 118.113C62.7049 119.43 59.1263 120.088 55.5476 120.088ZM55.5476 5.02082C52.1316 5.02082 48.7156 5.67928 45.4622 6.8316C43.5102 7.65469 23.1768 19.5071 10.9768 26.9149C7.39808 29.2195 5.12074 33.1703 5.12074 37.4503V82.3908C5.12074 86.6708 7.39808 90.6216 10.9768 92.7616C30.4968 104.614 44.3235 112.68 46.4382 113.503C52.2942 115.479 58.6383 115.479 64.4943 113.503C66.9343 112.68 87.593 100.334 99.9557 92.7616C103.697 90.6216 105.974 86.6708 105.974 82.3908V37.4503C105.974 33.1703 103.697 29.2195 100.118 27.0795C76.6943 12.9224 66.9343 7.32545 65.6329 6.8316C62.3796 5.67928 58.9636 5.02082 55.5476 5.02082Z" fill="#C58511"/>
</svg>
