<svg width="111" height="121" viewBox="0 0 111 121" fill="none" xmlns="http://www.w3.org/2000/svg">
<path d="M55.2764 121C51.6997 121 48.123 120.337 44.7088 119.175C41.2947 118.014 20.3222 105.243 8.29146 97.9445C3.25155 94.793 0 89.1535 0 83.0164V37.7347C0 31.5977 3.25155 25.9582 8.29146 22.9726C13.6565 19.6552 40.6444 3.40027 43.5708 2.2392C51.2119 -0.746402 59.5034 -0.746402 66.982 2.2392C69.5832 3.23441 87.6293 14.0158 102.261 22.8067C107.301 25.9582 110.553 31.5977 110.553 37.7347V83.0164C110.553 89.1535 107.301 94.793 102.261 97.7786C96.8962 101.096 69.5832 117.683 65.8439 119.01C62.4298 120.337 58.8531 121 55.2764 121ZM55.2764 5.05894C51.8622 5.05894 48.4481 5.72241 45.1966 6.88348C43.2456 7.71282 22.9234 19.6552 10.7301 27.1193C7.15341 29.4414 4.87733 33.4222 4.87733 37.7347V83.0164C4.87733 87.329 7.15341 91.3098 10.7301 93.4661C30.2394 105.408 44.0585 113.536 46.172 114.365C52.0248 116.356 58.3654 116.356 64.2181 114.365C66.6568 113.536 87.3042 101.096 99.6601 93.4661C103.399 91.3098 105.675 87.329 105.675 83.0164V37.7347C105.675 33.4222 103.399 29.4414 99.8226 27.2851C80.1507 15.3427 66.982 7.54695 65.3562 6.88348C62.1046 5.72241 58.6905 5.05894 55.2764 5.05894Z" fill="#C58511"/>
<path d="M80.9633 44.0345C79.3375 44.8638 77.5492 45.1955 75.7608 45.5273C76.5737 45.3614 77.8744 43.8686 78.3621 43.2051C79.175 42.2099 79.8253 41.2147 80.1504 40.0536C80.1504 39.8878 80.1504 39.8878 80.1504 39.7219C79.9879 39.7219 79.9879 39.7219 79.8253 39.7219C77.8743 40.883 75.7608 41.5465 73.6473 42.2099C73.4848 42.2099 73.3222 42.2099 73.1596 42.0441C72.997 41.8782 72.8344 41.7123 72.6719 41.5465C71.6964 40.7171 70.7209 40.0536 69.7455 39.7219C68.2823 39.0584 66.6565 38.8926 65.1933 38.8926C63.7301 39.0584 62.1043 39.3902 60.8037 40.2195C59.5031 40.883 58.2025 41.8782 57.227 43.2051C56.2515 44.5321 55.4386 45.859 55.1135 47.5177C54.7883 49.0105 54.7883 50.5033 54.9509 51.9961C54.9509 52.3278 54.9509 52.3278 54.7883 52.3278C46.3343 51.0009 39.1809 47.8494 33.4907 41.2147C33.1655 40.883 33.1655 40.883 32.8404 41.2147C30.4017 45.0297 31.5397 51.1667 34.6287 54.3182C35.1164 54.6499 35.4416 55.1476 35.9293 55.4793C35.7668 55.4793 33.6532 55.3134 31.8649 54.3182C31.5397 54.1523 31.5397 54.3182 31.5397 54.4841C31.5397 54.8158 31.5397 55.3134 31.5397 55.811C32.0275 59.626 34.6287 63.275 38.2054 64.7678C38.6932 64.9337 39.1809 65.0996 39.506 65.2654C38.6931 65.4313 37.8803 65.5972 35.4416 65.4313C35.1164 65.4313 35.1164 65.5972 35.1164 65.763C36.9048 70.739 40.8067 72.2319 43.5705 73.0612C43.8956 73.0612 44.3834 73.0612 44.7085 73.2271C43.7331 74.7199 40.4815 75.8809 38.8557 76.3785C36.0919 77.3737 33.0029 77.8713 30.0765 77.5396C29.5888 77.5396 29.4262 77.5396 29.4262 77.5396C29.2637 77.5396 29.4262 77.7055 29.5888 77.8713C30.2391 78.2031 30.7268 78.7007 31.3772 79.0324C33.3281 80.0276 35.279 80.8569 37.23 81.3545C47.7975 84.3401 59.6657 82.1839 67.632 74.0564C73.8099 67.7534 76.086 58.9625 76.086 50.3374C76.086 50.0057 76.4112 49.8398 76.7363 49.6739C78.3621 48.5129 79.6627 47.0201 80.8008 45.3614C81.1259 45.0297 81.1259 44.6979 81.1259 44.5321C81.1259 43.8686 81.1259 43.8686 80.9633 44.0345Z" fill="#C58511"/>
</svg>
