<svg width="70" height="75" viewBox="0 0 70 75" fill="none" xmlns="http://www.w3.org/2000/svg">
<path d="M55.2264 39.2539L66.2932 39.2539C68.3346 39.2539 70 37.5458 70 35.4519L70 3.98908C70 1.89523 68.3346 0.187088 66.2932 0.187088L55.2264 0.187087C53.185 0.187087 51.5196 1.89523 51.5196 3.98908L51.5196 35.4519C51.4658 37.5458 53.1312 39.2539 55.2264 39.2539Z" fill="#DCDCDC"/>
<path d="M5.26471 35.5623L5.90937 35.5623C2.68604 35.5623 -7.30822e-05 38.2622 -7.33761e-05 41.6234C-7.36651e-05 44.9295 2.63232 47.6846 5.90937 47.6846L24.8196 47.6846C22.5095 51.4315 19.3399 57.4375 19.3399 62.3415C19.3399 70.1108 23.4765 74.4087 26.2164 74.9046C28.9025 75.4005 30.8902 73.9128 31.696 71.5985C32.5019 69.2292 31.1051 64.8211 31.6423 63.2231C32.4481 60.7987 36.6385 57.4926 42.2793 50.0539C47.3292 43.3867 46.6308 35.5623 46.6308 35.5623L46.6308 24.8175L46.6308 14.0728L46.6308 9.05856C46.6308 6.9647 44.9654 5.31166 42.9777 5.31166L7.84337 5.31166C5.4796 5.31166 3.59932 7.29531 3.59932 9.66466C3.59932 12.0891 5.53332 14.0177 7.84337 14.0177L7.25243 14.0177C4.35143 14.0177 2.04138 16.4421 2.04138 19.3625C2.04137 22.338 4.40515 24.7073 7.25243 24.7073L5.31843 24.7073C2.41743 24.7073 0.107373 27.1318 0.107372 30.0522C-7.26342e-05 33.1378 2.36371 35.5623 5.26471 35.5623Z" fill="#DCDCDC"/>
</svg>
