<?xml version="1.0" encoding="utf-8"?>
<!-- Generator: Adobe Illustrator 24.0.2, SVG Export Plug-In . SVG Version: 6.00 Build 0)  -->
<svg version="1.1" id="Capa_1" xmlns="http://www.w3.org/2000/svg" xmlns:xlink="http://www.w3.org/1999/xlink" x="0px" y="0px"
	 viewBox="0 0 32.2 35" style="enable-background:new 0 0 32.2 35;" xml:space="preserve">
<style type="text/css">
	.st0{fill:#C58511;}
</style>
<g>
	<path class="st0" d="M22.8,17.4v4.9c0,0.1-0.1,0.2-0.2,0.2H20c-0.1,0-0.2-0.1-0.2-0.2v-4.5c0-1.2-0.4-2-1.5-2
		c-0.8,0-1.3,0.5-1.5,1.1c-0.1,0.2-0.1,0.4-0.1,0.7v4.7c0,0.1-0.1,0.2-0.2,0.2h-2.5c-0.1,0-0.2-0.1-0.2-0.2c0-1.2,0-7,0-8.4
		c0-0.1,0.1-0.2,0.2-0.2h2.5c0.1,0,0.2,0.1,0.2,0.2v1c0,0,0,0,0,0v0c0.4-0.6,1.1-1.5,2.7-1.5C21.3,13.4,22.8,14.6,22.8,17.4z
		 M9.3,22.4h2.5c0.1,0,0.2-0.1,0.2-0.2v-8.4c0-0.1-0.1-0.2-0.2-0.2H9.3c-0.1,0-0.2,0.1-0.2,0.2v8.4C9.1,22.3,9.2,22.4,9.3,22.4z"/>
	<path class="st0" d="M10.5,12.5c0.9,0,1.6-0.7,1.6-1.6c0-0.9-0.7-1.6-1.6-1.6c-0.9,0-1.6,0.7-1.6,1.6C8.9,11.8,9.6,12.5,10.5,12.5z
		"/>
	<path class="st0" d="M16.1,35c-1,0-2.1-0.2-3.1-0.5c-1-0.3-7.1-4-10.6-6.1C0.9,27.4,0,25.8,0,24V10.9c0-1.8,0.9-3.4,2.4-4.3
		c1.6-1,9.4-5.7,10.3-6c2.2-0.9,4.6-0.9,6.8,0c0.8,0.3,6,3.4,10.3,5.9c1.5,0.9,2.4,2.5,2.4,4.3V24c0,1.8-0.9,3.4-2.4,4.3
		c-1.6,1-9.5,5.8-10.6,6.1C18.2,34.8,17.2,35,16.1,35z M16.1,1.8c-1,0-2,0.2-2.9,0.5C12.7,2.5,6.9,5.9,3.4,8c-1,0.7-1.7,1.8-1.7,3
		v12.8c0,1.2,0.7,2.4,1.7,3c5.6,3.4,9.5,5.7,10.1,5.9c1.7,0.6,3.5,0.6,5.2,0c0.7-0.2,6.6-3.8,10.1-5.9c1.1-0.6,1.7-1.7,1.7-3V11
		c0-1.2-0.7-2.4-1.7-3c-6.7-4-9.5-5.6-9.8-5.8C18.1,2,17.1,1.8,16.1,1.8z"/>
</g>
</svg>
