<svg width="46" height="51" viewBox="0 0 46 51" fill="none" xmlns="http://www.w3.org/2000/svg">
<path d="M23 50.0343C21.5118 50.0343 20.0235 49.7599 18.6029 49.2798C17.1824 48.7997 8.45588 43.5185 3.45 40.5007C1.35294 39.1975 0 36.8656 0 34.3278V15.6036C0 13.0658 1.35294 10.7339 3.45 9.49931C5.68235 8.12757 16.9118 1.40604 18.1294 0.925926C21.3088 -0.308642 24.7588 -0.308642 27.8706 0.925926C28.9529 1.33745 36.4618 5.79561 42.55 9.43073C44.6471 10.7339 46 13.0658 46 15.6036V34.3278C46 36.8656 44.6471 39.1975 42.55 40.4321C40.3176 41.8038 28.9529 48.6626 27.3971 49.2113C25.9765 49.7599 24.4882 50.0343 23 50.0343ZM23 2.09191C21.5794 2.09191 20.1588 2.36626 18.8059 2.84636C17.9941 3.1893 9.53823 8.12757 4.46471 11.214C2.97647 12.1742 2.02941 13.8203 2.02941 15.6036V34.3278C2.02941 36.1111 2.97647 37.7572 4.46471 38.6488C12.5824 43.5871 18.3324 46.9479 19.2118 47.2908C21.6471 48.1139 24.2853 48.1139 26.7206 47.2908C27.7353 46.9479 36.3265 41.8038 41.4676 38.6488C43.0235 37.7572 43.9706 36.1111 43.9706 34.3278V15.6036C43.9706 13.8203 43.0235 12.1742 41.5353 11.2826C31.7941 5.38409 27.7353 3.05213 27.1941 2.84636C25.8412 2.36626 24.4206 2.09191 23 2.09191Z" fill="#C58511"/>
<path d="M23 2C21.5774 2 20.1548 2.27545 18.8 2.75748C17.9871 3.1018 9.51935 8.05988 4.43871 11.1587C2.94839 12.1228 2 13.7754 2 15.5659V34.3653C2 36.1557 2.94839 37.8084 4.43871 38.7036C12.5677 43.6617 18.3258 47.0359 19.2065 47.3802C21.6452 48.2066 24.2871 48.2066 26.7258 47.3802C27.7419 47.0359 36.3452 41.8713 41.4935 38.7036C43.0516 37.8084 44 36.1557 44 34.3653V15.5659C44 13.7754 43.0516 12.1228 41.5613 11.2275C33.3645 6.26946 27.8774 3.03293 27.2 2.75748C25.8452 2.27545 24.4226 2 23 2Z" fill="white"/>
<path d="M29.088 17.5925C28.3439 17.5925 27.7351 18.2098 27.7351 18.9642C27.7351 19.7187 28.3439 20.336 29.088 20.336C29.8321 20.336 30.4409 19.7187 30.4409 18.9642C30.4409 18.2098 29.8321 17.5925 29.088 17.5925ZM23.0674 19.3757C19.9557 19.3757 17.3851 21.982 17.3851 25.1371C17.3851 28.2921 19.9557 30.8984 23.0674 30.8984C26.1792 30.8984 28.7498 28.2921 28.7498 25.1371C28.7498 21.982 26.1792 19.3757 23.0674 19.3757ZM23.0674 28.8408C21.038 28.8408 19.4145 27.1947 19.4145 25.1371C19.4145 23.0794 21.038 21.4334 23.0674 21.4334C25.0968 21.4334 26.7204 23.0794 26.7204 25.1371C26.7204 27.1947 25.0292 28.8408 23.0674 28.8408ZM34.5674 20.336C34.5674 16.4265 31.4557 13.2715 27.5998 13.2715H18.3998C14.5439 13.2715 11.4321 16.4265 11.4321 20.336V29.6638C11.4321 33.5733 14.5439 36.7283 18.3998 36.7283H27.5998C31.4557 36.7283 34.5674 33.5733 34.5674 29.6638V20.336ZM32.3351 29.6638C32.3351 32.3387 30.1704 34.5335 27.5321 34.5335H18.3998C15.7615 34.5335 13.5968 32.3387 13.5968 29.6638V20.336C13.5968 17.6611 15.7615 15.4663 18.3998 15.4663H27.5998C30.238 15.4663 32.4027 17.6611 32.4027 20.336V29.6638H32.3351Z" fill="#C58511"/>
</svg>
