<svg width="330" height="379" viewBox="0 0 330 379" fill="none" xmlns="http://www.w3.org/2000/svg">
<path d="M310.718 94.3629C299.916 87.9705 206.294 32.4145 197.466 29.044C176.558 21.0244 153.094 21.0244 132.186 29.044C123.242 32.4145 114.995 37.1798 107.561 43.2235L19.0496 94.3629C7.31784 101.104 0 113.773 0 127.487V273.816C0 287.414 7.31784 300.199 19.0496 306.94C29.8522 313.449 124.52 370.399 135.554 374.119C145.079 377.373 154.952 379 164.942 379C174.931 379 184.805 377.373 194.329 374.119C205.597 370.283 215.818 364.356 224.879 356.569L310.834 306.94C322.682 300.083 330 287.414 330 273.816V127.487C329.884 113.773 322.566 101.104 310.718 94.3629Z" fill="url(#paint0_linear)"/>
<g clip-path="url(#clip0)">
<path d="M164.942 171.261C118.057 171.261 80.3564 132.715 80.3564 85.8744C80.3564 39.0338 118.057 0 164.942 0C211.827 0 249.528 38.5459 249.528 85.3865C249.528 132.227 211.827 171.261 164.942 171.261ZM164.942 19.5169C128.691 19.5169 99.6903 49.2802 99.6903 85.3865C99.6903 121.493 129.174 151.256 164.942 151.256C200.71 151.256 230.194 121.981 230.194 85.3865C230.194 48.7923 201.193 19.5169 164.942 19.5169Z" fill="#02395E"/>
<path d="M287.229 225.909C274.178 208.832 258.711 196.146 241.311 188.827C235.994 186.387 229.227 189.315 226.81 194.682L183.792 282.996L175.092 220.054L194.909 187.851C196.359 185.412 194.909 181.996 192.009 181.996H175.092H155.758H138.841C135.941 181.996 134.008 185.412 135.941 187.851L155.758 220.054L147.058 282.996L103.074 195.17C100.657 189.803 93.8901 187.363 88.0899 189.315C86.1565 190.291 84.2231 190.779 82.2897 191.755C81.8064 191.755 81.3231 192.242 80.8397 192.242C79.3897 193.218 77.4563 193.706 76.0062 194.682C75.5229 195.17 74.5562 195.658 74.0729 196.146C72.6228 197.122 71.6561 197.61 70.2061 198.585C69.2394 199.073 68.756 199.561 67.7894 200.049C66.8227 201.025 65.3726 201.513 64.4059 202.489C63.4392 202.977 62.9559 203.465 61.9892 204.441C61.0225 205.416 60.0558 206.392 58.6058 207.368C58.6058 208.344 58.1224 208.832 57.1557 209.808C56.189 210.784 55.2224 211.759 53.7723 212.735C53.289 213.223 52.8056 214.199 52.3223 214.687C51.3556 215.663 49.9055 217.127 48.9388 218.59C48.4555 219.078 47.9722 219.566 47.4888 220.542C46.0388 222.494 44.1054 224.445 42.6553 226.397C32.0217 241.035 30.0883 260.064 38.3052 276.653C46.5221 293.243 62.9559 303.489 81.3231 303.489H155.758H175.092H249.528C267.895 303.489 284.329 293.243 292.545 276.653C299.796 259.576 297.862 240.547 287.229 225.909ZM80.8397 283.484C69.7227 283.484 60.0558 277.629 55.2223 267.383C50.3889 257.624 51.3556 246.402 58.1224 237.619C59.5725 235.668 61.5059 233.228 62.9559 231.276C63.4392 230.788 63.4392 230.3 63.9226 229.813C65.3726 227.861 67.306 225.909 69.2394 224.445C69.7227 223.957 69.7227 223.957 70.2061 223.47C71.6561 222.006 73.5895 220.542 75.0396 219.078C75.5229 218.59 75.5229 218.59 76.0062 218.102C77.9396 216.639 79.873 215.175 81.8064 213.711C82.2897 213.711 82.2897 213.223 82.7731 213.223C86.1565 211.271 90.99 212.735 92.44 216.151L112.741 258.112L120.957 275.189C122.407 278.605 119.991 282.508 116.607 282.508H80.8397V283.484ZM274.662 267.383C269.828 277.629 260.161 283.484 249.044 283.484H213.277C209.41 283.484 206.993 279.581 208.926 276.165L237.444 217.127C239.377 213.223 244.211 211.759 247.594 214.199C256.294 220.054 264.511 227.861 271.762 237.619C278.528 246.402 279.495 257.624 274.662 267.383Z" fill="#02395E"/>
<path d="M174.608 220.542L194.426 188.339C195.876 185.899 194.426 182.484 191.526 182.484H174.608H155.275H138.358C135.457 182.484 133.524 185.899 135.457 188.339L155.275 220.542L146.574 282.996H183.792L174.608 220.542Z" fill="#C58511"/>
</g>
<defs>
<linearGradient id="paint0_linear" x1="165" y1="23.0293" x2="165" y2="379" gradientUnits="userSpaceOnUse">
<stop stop-color="white" stop-opacity="0.28"/>
<stop offset="1" stop-color="white"/>
</linearGradient>
<clipPath id="clip0">
<rect width="263.907" height="303" fill="white" transform="translate(32.9883)"/>
</clipPath>
</defs>
</svg>
