<svg width="330" height="380" viewBox="0 0 330 380" fill="none" xmlns="http://www.w3.org/2000/svg">
<g clip-path="url(#clip0)">
<rect width="330" height="355.781" transform="translate(0 24.0039)" fill="url(#paint0_linear)"/>
<path d="M310.827 95.3235C300.021 88.935 206.366 33.4132 197.535 30.0447C176.62 22.03 153.148 22.03 132.232 30.0447C123.285 33.4132 115.035 38.1755 107.599 44.2155L19.0563 95.3235C7.32042 102.06 0 114.721 0 128.428V274.666C0 288.256 7.32042 301.033 19.0563 307.77C29.8627 314.275 124.563 371.19 135.602 374.907C145.13 378.16 155.007 379.786 165 379.786C174.993 379.786 184.87 378.16 194.398 374.907C205.669 371.074 215.894 365.15 224.958 357.368L310.944 307.77C322.796 300.917 330.116 288.256 330.116 274.666V128.428C330 114.721 322.68 102.06 310.827 95.3235Z" fill="url(#paint1_linear)"/>
</g>
<path d="M190.44 228.552C188.211 228.922 186.353 229.662 184.124 230.031C178.551 231.141 174.836 236.318 175.951 241.866C176.322 244.454 178.18 246.673 180.037 248.153C182.266 249.632 184.867 250.372 187.839 250.002C190.44 249.632 193.04 248.892 195.269 248.522C200.842 247.043 204.186 241.496 202.7 236.318C201.214 230.401 195.641 227.443 190.44 228.552Z" fill="#C58511"/>
<path d="M265.485 92.8267C266.228 95.0457 267.714 96.8948 269.2 98.0042C271.801 99.8533 275.144 100.223 278.116 99.4835C283.318 97.6344 286.29 92.0871 284.432 86.5397C283.689 83.951 282.575 81.732 281.832 79.5131C279.603 74.3356 273.658 71.7468 268.457 73.9658C263.256 76.1847 260.655 82.1019 262.884 87.2794C263.999 88.7587 264.742 90.9776 265.485 92.8267Z" fill="#C58511"/>
<path d="M223.504 214.129C221.647 215.238 219.789 216.348 217.932 217.457C213.102 220.416 211.244 226.333 214.216 231.141C214.959 232.62 216.074 233.36 217.189 234.469C220.161 236.688 224.619 237.058 227.962 234.839C230.191 233.729 232.421 232.25 234.65 230.771C239.479 227.812 240.594 221.525 237.622 216.718C234.278 212.28 227.962 211.17 223.504 214.129Z" fill="#C58511"/>
<path d="M291.119 121.304C290.748 115.757 286.29 111.319 280.717 111.689C275.144 112.058 270.686 116.496 271.058 122.044C271.058 124.263 271.058 126.481 271.058 128.331C271.058 131.659 272.544 134.987 275.516 136.836C277.002 137.946 279.231 138.686 281.089 138.686C286.661 138.686 291.491 134.248 291.491 128.7C291.119 126.112 291.119 123.523 291.119 121.304Z" fill="#C58511"/>
<path d="M263.999 187.502C259.541 184.173 253.225 184.913 249.882 189.351C248.767 191.2 247.281 192.679 245.795 194.528C242.08 198.966 242.823 205.253 246.909 208.951C247.281 209.321 247.281 209.321 247.652 209.691C251.739 212.65 257.683 211.91 261.398 207.842C262.884 205.993 264.742 203.774 266.228 201.925C269.2 197.117 268.457 190.83 263.999 187.502Z" fill="#C58511"/>
<path d="M278.86 150.891C273.659 149.042 267.714 152.37 266.228 157.547C265.485 159.766 264.742 161.615 263.999 163.465C262.142 167.902 263.999 172.71 267.714 175.299C268.457 175.669 269.2 176.039 269.943 176.408C275.145 178.257 281.089 175.669 282.946 170.491C283.689 168.272 284.804 165.683 285.547 163.095C287.033 158.287 284.061 152.74 278.86 150.891Z" fill="#C58511"/>
<path d="M145.858 230.032C136.942 228.553 128.025 225.594 119.852 221.896C119.852 221.896 119.852 221.896 119.481 221.896C117.623 221.156 115.766 220.047 113.536 218.938C110.193 217.088 106.849 214.869 103.506 212.651C55.5805 178.997 44.0636 113.168 77.8712 65.4612C85.3015 55.1062 94.2178 46.6002 103.877 39.5736C103.877 39.5736 104.249 39.5736 104.249 39.2038C139.171 15.1653 186.353 13.686 223.504 38.0943L215.702 49.5588C213.473 52.8872 214.959 55.1062 218.674 54.7363L253.225 51.7777C256.94 51.4079 259.541 48.0795 258.426 44.3813L249.139 11.0973C248.024 7.39905 245.423 7.02923 243.194 9.98781L235.021 21.4523C207.901 3.331 175.579 -3.69563 143.257 1.85171C139.914 2.59136 136.942 2.96118 133.598 4.07065H133.227C104.992 11.0973 80.8433 27.3695 63.3823 50.2985L63.0107 50.6683C62.2677 51.4079 61.8962 52.1476 61.1532 52.8872C60.4102 54.3665 59.2956 55.476 58.5526 56.9553L58.1811 57.3251C43.6921 79.5144 37.0049 105.032 38.1194 130.92C38.1194 130.92 38.1194 130.92 38.1194 131.29C38.1194 133.878 38.4909 136.467 38.8624 139.056V139.426C39.234 142.014 39.6055 144.603 39.977 147.192C44.4351 173.449 56.695 196.748 75.2707 214.869C80.1003 219.677 85.673 224.115 91.6172 228.183C106.849 238.908 123.939 245.935 142.143 249.263C147.716 250.372 152.917 246.674 154.031 241.127C155.146 236.319 151.431 231.142 145.858 230.032Z" fill="#02395E"/>
<path d="M158.49 44.0112C154.032 44.0112 150.316 47.7095 150.316 52.1473V133.878L225.362 172.34C226.476 173.079 227.963 173.079 229.077 173.079C232.049 173.079 235.021 171.6 236.507 168.641C238.736 164.573 236.879 159.766 232.792 157.547L166.663 123.523V52.5171C166.663 47.7095 162.948 44.0112 158.49 44.0112Z" fill="#02395E"/>
<defs>
<linearGradient id="paint0_linear" x1="165" y1="0" x2="165" y2="355.781" gradientUnits="userSpaceOnUse">
<stop stop-color="white" stop-opacity="0"/>
<stop offset="1" stop-color="white" stop-opacity="0"/>
</linearGradient>
<linearGradient id="paint1_linear" x1="165.058" y1="24.0337" x2="165.058" y2="379.786" gradientUnits="userSpaceOnUse">
<stop stop-color="white" stop-opacity="0.28"/>
<stop offset="1" stop-color="white"/>
</linearGradient>
<clipPath id="clip0">
<rect width="330" height="355.781" fill="white" transform="translate(0 24.0039)"/>
</clipPath>
</defs>
</svg>
