<svg width="458" height="133" viewBox="0 0 458 133" fill="none" xmlns="http://www.w3.org/2000/svg">
<path d="M19.13 1.46515C14.86 1.46515 12.34 1.60515 7.23 2.37516V46.8252C12.41 47.5952 15.84 47.6652 19.83 47.6652C35.16 47.6652 44.68 37.9352 44.68 24.2852C44.68 10.6352 35.72 1.46515 19.13 1.46515ZM20.04 42.5552C17.17 42.5552 15.14 42.4152 12.9 42.2052V6.99515C15.35 6.78515 17.1 6.71515 19.13 6.71515C32.57 6.71515 38.73 13.9252 38.73 24.4252C38.73 35.0652 32.43 42.5552 20.04 42.5552ZM80.8596 27.7152C80.8596 19.1752 74.6296 13.0852 66.1596 13.0852C57.1996 13.0852 50.1996 20.4352 50.1996 30.6552C50.1996 41.2252 56.9896 48.0152 66.6496 48.0152C72.8096 48.0152 76.9396 45.4952 79.5996 43.2552C79.2496 41.7852 77.9196 40.1052 76.5196 39.4052C74.6996 40.8052 72.1796 42.8352 66.7196 42.8352C60.6996 42.8352 56.4996 38.2852 56.0796 32.1952H80.5796C80.7896 30.3052 80.8596 29.4652 80.8596 27.7152ZM56.1496 27.5052C56.7796 22.3952 60.4196 18.1252 66.1596 18.1252C72.5996 18.1252 74.9796 23.0252 74.9796 27.5052H56.1496ZM108.187 14.2052C105.947 13.4352 103.777 13.0852 101.117 13.0852C95.657 13.0852 90.547 15.2552 87.817 17.5652V47.0352C88.797 47.2452 89.707 47.3152 90.687 47.3152C91.667 47.3152 92.647 47.2452 93.557 47.0352V20.0852C95.377 18.9652 97.897 18.4052 100.767 18.4052C102.797 18.4052 104.967 18.6152 106.787 19.1052C107.767 17.8452 108.327 15.8852 108.187 14.2052ZM140.283 27.7152C140.283 19.1752 134.053 13.0852 125.583 13.0852C116.623 13.0852 109.623 20.4352 109.623 30.6552C109.623 41.2252 116.413 48.0152 126.073 48.0152C132.233 48.0152 136.363 45.4952 139.023 43.2552C138.673 41.7852 137.343 40.1052 135.943 39.4052C134.123 40.8052 131.603 42.8352 126.143 42.8352C120.123 42.8352 115.923 38.2852 115.503 32.1952H140.003C140.213 30.3052 140.283 29.4652 140.283 27.7152ZM115.573 27.5052C116.203 22.3952 119.843 18.1252 125.583 18.1252C132.023 18.1252 134.403 23.0252 134.403 27.5052H115.573ZM162.43 48.0152C167.4 48.0152 171.74 45.8452 173.84 43.6752C173.28 41.9252 172.16 40.5952 170.62 39.7552C169.36 40.7352 167.05 42.8352 162.43 42.8352C154.59 42.8352 151.09 36.9552 151.09 30.5852C151.09 24.2152 154.59 18.1952 162.43 18.1952C165.79 18.1952 168.17 19.5252 170.13 21.0652C171.81 20.0852 172.86 18.6152 173.35 16.9352C171.25 14.9752 167.33 13.0852 162.43 13.0852C152.77 13.0852 145.35 20.2252 145.35 30.5852C145.35 41.5052 152.42 48.0152 162.43 48.0152ZM195.778 13.0852C191.788 13.0852 188.708 14.1352 185.978 15.6752V1.04516C185.068 0.835154 184.088 0.765155 183.178 0.765155C182.268 0.765155 181.288 0.835154 180.308 1.04516V47.0352C181.288 47.2452 182.268 47.3152 183.178 47.3152C184.088 47.3152 185.068 47.2452 185.978 47.0352V20.9252C188.498 19.4552 191.788 18.4752 194.728 18.4752C202.428 18.4752 204.388 23.2352 204.388 28.6252V47.0352C205.368 47.2452 206.278 47.3152 207.188 47.3152C208.098 47.3152 209.148 47.2452 210.058 47.0352V26.5952C210.058 19.7352 205.718 13.0852 195.778 13.0852ZM233.809 47.9452C243.679 47.9452 251.029 40.3852 251.029 30.5152C251.029 20.6452 244.099 13.0152 234.229 13.0152C224.359 13.0152 217.009 20.6452 217.009 30.5152C217.009 40.3852 223.939 47.9452 233.809 47.9452ZM234.019 42.6952C227.089 42.6952 222.749 37.6552 222.749 30.5152C222.749 23.3752 227.089 18.2652 234.019 18.2652C240.949 18.2652 245.289 23.3752 245.289 30.5152C245.289 37.6552 240.949 42.6952 234.019 42.6952ZM28.23 86.0952C26.48 85.7452 24.94 85.6752 23.12 85.6752C21.37 85.6752 19.48 85.7452 17.73 86.0952L0.93 130.545C2.47 131.105 4.43 131.315 6.46 131.315C8 131.315 9.68 131.245 11.22 131.035L14.44 122.145H31.1L34.32 131.035C35.51 131.245 36.91 131.385 38.17 131.385C40.48 131.385 42.72 131.035 44.89 130.545L28.23 86.0952ZM17.66 113.465L21.44 103.105L22.7 98.7652L24.1 103.105L27.88 113.465H17.66ZM74.4398 84.6252C72.7598 84.6252 71.0098 84.7652 69.2598 85.0452V97.5052C67.7198 97.0852 66.0398 96.8752 63.8698 96.8752C53.5798 96.8752 45.3198 103.735 45.3198 114.655C45.3198 125.925 52.5998 132.225 64.7098 132.225C70.4498 132.225 76.1898 130.685 79.6898 128.935V85.0452C77.9398 84.7652 76.1898 84.6252 74.4398 84.6252ZM64.3598 123.335C59.3198 123.335 55.8198 119.835 55.8198 114.515C55.8198 109.125 59.5298 105.765 64.4998 105.765C66.1098 105.765 67.7198 105.975 69.2598 106.745V122.705C67.6498 123.125 66.0398 123.335 64.3598 123.335ZM124.508 96.6652C120.028 96.6652 116.178 98.1352 113.518 99.8152C110.998 97.8552 107.358 96.6652 102.668 96.6652C94.4784 96.6652 88.2484 100.165 85.8684 102.195V131.035C87.6184 131.315 89.2984 131.455 91.0484 131.455C92.7984 131.455 94.5484 131.315 96.2984 131.035V107.515C97.5584 106.745 99.3784 106.115 101.688 106.115C105.608 106.115 107.638 108.285 107.638 112.415V131.035C109.318 131.315 111.068 131.455 112.818 131.455C114.568 131.455 116.318 131.315 118.068 131.035V110.105C118.068 109.405 117.998 108.705 117.928 108.005C119.188 107.095 120.868 106.115 123.528 106.115C127.448 106.115 129.408 108.285 129.408 112.415V131.035C131.158 131.315 132.908 131.455 134.658 131.455C136.408 131.455 138.158 131.315 139.908 131.035V110.105C139.908 102.335 134.938 96.6652 124.508 96.6652ZM151.255 93.5152C154.685 93.5152 157.555 90.6452 157.555 87.2152C157.555 83.7852 154.685 80.9852 151.255 80.9852C147.755 80.9852 144.955 83.7852 144.955 87.2152C144.955 90.6452 147.825 93.5152 151.255 93.5152ZM151.185 131.455C153.005 131.455 154.755 131.315 156.435 131.035V97.7852C154.615 97.5052 152.865 97.3652 151.185 97.3652C149.435 97.3652 147.685 97.5052 146.005 97.7852V131.035C147.755 131.315 149.505 131.455 151.185 131.455ZM179.455 96.6652C171.195 96.6652 165.245 99.8852 162.655 102.195V131.035C164.405 131.315 166.085 131.455 167.835 131.455C169.585 131.455 171.335 131.315 173.085 131.035V107.515C174.275 106.815 176.235 106.115 178.685 106.115C182.395 106.115 184.985 107.795 184.985 112.555V131.035C186.735 131.315 188.485 131.455 190.235 131.455C191.985 131.455 193.735 131.315 195.485 131.035V110.875C195.485 102.685 190.515 96.6652 179.455 96.6652ZM206.85 93.5152C210.28 93.5152 213.15 90.6452 213.15 87.2152C213.15 83.7852 210.28 80.9852 206.85 80.9852C203.35 80.9852 200.55 83.7852 200.55 87.2152C200.55 90.6452 203.42 93.5152 206.85 93.5152ZM206.78 131.455C208.6 131.455 210.35 131.315 212.03 131.035V97.7852C210.21 97.5052 208.46 97.3652 206.78 97.3652C205.03 97.3652 203.28 97.5052 201.6 97.7852V131.035C203.35 131.315 205.1 131.455 206.78 131.455ZM231.13 132.225C240.86 132.225 246.18 127.885 246.18 120.955C246.18 113.745 240.65 111.575 234.07 110.455C228.82 109.475 227.35 108.845 227.35 107.165C227.35 105.485 228.89 104.785 232.18 104.785C235.96 104.785 239.67 105.975 241.91 107.235C243.8 105.765 245.13 103.315 245.55 99.9552C243.24 98.4852 238.97 96.8752 232.04 96.8752C223.71 96.8752 217.41 100.795 217.41 107.655C217.41 115.005 223.15 116.965 228.61 118.085C234.07 119.065 235.82 119.975 235.82 121.725C235.82 123.195 234.7 124.385 231.48 124.385C226.44 124.385 223.01 122.565 220.56 121.025C218.53 122.285 216.99 124.735 216.43 128.025C218.6 129.845 223.64 132.225 231.13 132.225ZM274.003 121.235C272.883 122.215 271.343 123.195 269.383 123.195C266.303 123.195 264.553 121.935 264.553 118.155V106.885H276.173C276.453 105.415 276.663 104.015 276.663 102.475C276.663 101.075 276.453 99.6752 276.173 98.3452H264.553V89.5952C262.943 89.3152 261.193 89.1752 259.513 89.1752C257.763 89.1752 256.013 89.3152 254.193 89.5952V98.3452H248.523C248.313 99.7452 248.173 101.145 248.173 102.545C248.173 104.085 248.313 105.555 248.523 106.885H254.193V120.745C254.193 128.865 259.933 132.085 267.563 132.085C272.603 132.085 275.963 130.265 278.343 128.375C277.993 125.575 276.033 122.425 274.003 121.235ZM295.93 96.7352C288.65 96.7352 283.47 99.7452 281.16 101.845V131.035C282.91 131.315 284.59 131.455 286.34 131.455C288.09 131.455 289.91 131.315 291.59 131.035V107.235C292.71 106.675 294.53 106.255 296.7 106.255C298.17 106.255 299.43 106.395 300.69 106.745C302.58 104.365 303.56 101.145 303.63 97.7152C301.67 97.0852 299.08 96.7352 295.93 96.7352ZM319.397 96.8752C312.117 96.8752 306.867 100.025 304.977 101.705C305.467 104.785 307.217 107.095 309.457 108.355C311.207 107.025 314.567 105.485 318.487 105.485C323.387 105.485 325.347 107.515 325.347 110.385V111.715C323.317 111.085 321.007 110.805 318.347 110.735C309.877 110.665 303.857 114.235 303.857 121.235C303.857 128.515 309.387 132.155 318.907 132.155C324.997 132.155 330.737 130.895 335.707 128.865V111.435C335.707 101.075 329.057 96.8752 319.397 96.8752ZM314.287 120.815C314.287 118.365 316.317 117.245 319.607 117.245C321.777 117.245 323.667 117.525 325.347 118.015V124.105C323.667 124.595 321.987 124.875 320.307 124.875C316.317 124.875 314.287 123.265 314.287 120.815ZM363.89 121.235C362.77 122.215 361.23 123.195 359.27 123.195C356.19 123.195 354.44 121.935 354.44 118.155V106.885H366.06C366.34 105.415 366.55 104.015 366.55 102.475C366.55 101.075 366.34 99.6752 366.06 98.3452H354.44V89.5952C352.83 89.3152 351.08 89.1752 349.4 89.1752C347.65 89.1752 345.9 89.3152 344.08 89.5952V98.3452H338.41C338.2 99.7452 338.06 101.145 338.06 102.545C338.06 104.085 338.2 105.555 338.41 106.885H344.08V120.745C344.08 128.865 349.82 132.085 357.45 132.085C362.49 132.085 365.85 130.265 368.23 128.375C367.88 125.575 365.92 122.425 363.89 121.235ZM376.507 93.5152C379.937 93.5152 382.807 90.6452 382.807 87.2152C382.807 83.7852 379.937 80.9852 376.507 80.9852C373.007 80.9852 370.207 83.7852 370.207 87.2152C370.207 90.6452 373.077 93.5152 376.507 93.5152ZM376.437 131.455C378.257 131.455 380.007 131.315 381.687 131.035V97.7852C379.867 97.5052 378.117 97.3652 376.437 97.3652C374.687 97.3652 372.937 97.5052 371.257 97.7852V131.035C373.007 131.315 374.757 131.455 376.437 131.455ZM413.527 97.6452C412.127 97.6452 410.657 97.7152 409.467 97.8552C407.577 107.445 405.197 115.985 403.307 120.675C403.167 121.165 403.027 121.655 402.887 122.285C402.747 121.655 402.607 121.165 402.467 120.675C400.787 116.405 398.127 107.445 396.237 97.8552C395.117 97.7152 393.647 97.6452 392.387 97.6452C389.517 97.6452 386.297 98.0652 384.897 98.4152C387.697 111.015 390.917 120.745 397.567 131.035C399.317 131.385 400.997 131.525 402.747 131.525C404.427 131.525 406.177 131.385 407.857 131.035C413.877 121.165 417.377 111.295 420.387 98.4152C418.637 97.9952 416.047 97.6452 413.527 97.6452ZM439.473 132.155C450.043 132.155 457.743 125.085 457.743 114.445C457.743 103.595 450.183 96.6652 439.613 96.6652C429.043 96.6652 421.343 103.735 421.343 114.445C421.343 125.435 428.903 132.155 439.473 132.155ZM439.543 123.475C434.643 123.475 431.773 119.835 431.773 114.445C431.773 108.985 434.643 105.415 439.543 105.415C444.443 105.415 447.243 108.985 447.243 114.445C447.243 119.835 444.443 123.475 439.543 123.475Z" fill="#C58511"/>
</svg>
