[
  {
    "title": "titulo 1",
    "date": "Publicada por Lorenzo - Sáb 13 Febrero",
    "description": "Litigante que ayuda al lesionado a superar la injusticia. Disfruto ayudando a mis clientes a través de los períodos difíciles de su vida y conectándome Abogado litigante que  litigante que ayuda al lesionado a superar la injusticia."
  },
  {
    "title": "titulo 2",
    "date": "Publicada por Lorenzo - Sáb 13 Febrero",
    "description": "Litigante que ayuda al lesionado a superar la injusticia. Disfruto ayudando a mis clientes a través de los períodos difíciles de su vida y conectándome Abogado litigante que  litigante que ayuda al lesionado a superar la injusticia."
  },
  {
    "title": "titulo 3",
    "date": "Publicada por Lorenzo - Sáb 13 Febrero",
    "description": "Litigante que ayuda al lesionado a superar la injusticia. Disfruto ayudando a mis clientes a través de los períodos difíciles de su vida y conectándome Abogado litigante que  litigante que ayuda al lesionado a superar la injusticia."
  },
  {
    "title": "titulo 4",
    "date": "Publicada por Lorenzo - Sáb 13 Febrero",
    "description": "Litigante que ayuda al lesionado a superar la injusticia. Disfruto ayudando a mis clientes a través de los períodos difíciles de su vida y conectándome Abogado litigante que  litigante que ayuda al lesionado a superar la injusticia."
  },
  {
    "title": "titulo 5",
    "date": "Publicada por Lorenzo - Sáb 13 Febrero",
    "description": "Litigante que ayuda al lesionado a superar la injusticia. Disfruto ayudando a mis clientes a través de los períodos difíciles de su vida y conectándome Abogado litigante que  litigante que ayuda al lesionado a superar la injusticia."
  },
  {
    "title": "titulo 6",
    "date": "Publicada por Lorenzo - Sáb 13 Febrero",
    "description": "Litigante que ayuda al lesionado a superar la injusticia. Disfruto ayudando a mis clientes a través de los períodos difíciles de su vida y conectándome Abogado litigante que  litigante que ayuda al lesionado a superar la injusticia."
  }
]
