{
    "services": [
        {"name": "Derecho Administrativo"},
        {"name": "Derecho Comercial"},
        {"name": "Derecho Laboral"},
        {"name": "Derecho Familiar"},
        {"name": "Derecho Penal"},
        {"name": "Derecho Civil"},
        {"name": "Derecho Constitucional"},
        {"name": "Derecho Tributario"},
        {"name": "Derecho Internacional"}
    ]
}