<svg width="61" height="70" viewBox="0 0 61 70" fill="none" xmlns="http://www.w3.org/2000/svg">
<g clip-path="url(#clip0)">
<path d="M38.7047 47.1429H37.4561V47.9464V45.1786C40.5775 43.3929 43.0746 40.625 44.4123 37.1429H46.3743C51.0117 37.1429 54.7573 33.3929 54.7573 28.75C54.7573 25.8036 53.152 23.125 50.8333 21.6964V20.7143C50.7442 9.28571 41.4693 0 30.0541 0C18.6389 0 9.36403 9.28571 9.36403 20.7143V21.6964C7.04532 23.2143 5.44006 25.8036 5.44006 28.75C5.44006 33.3929 9.18567 37.1429 13.8231 37.1429H15.7851C17.0336 40.5357 19.5307 43.3929 22.7412 45.1786V47.1429H22.3845C9.98831 47.1429 0 56.25 0 68.5714C0 69.375 0.624269 70 1.4269 70H40.6667C41.4693 70 42.0936 69.375 42.0936 68.5714C42.0936 67.7679 41.4693 67.1429 40.6667 67.1429H2.8538C3.56725 57.3214 11.5936 50.4464 21.4035 50L25.595 49.9107L25.5058 46.3393C26.9327 46.7857 28.4488 47.0536 30.0541 47.0536C31.6594 47.0536 33.1754 46.7857 34.6023 46.3393V48.75V50.0893L39.5965 50C49.4956 50.4464 57.4327 57.4107 58.1462 67.2321H36.4751C35.6725 67.2321 35.0482 67.8571 35.0482 68.6607C35.0482 69.4643 35.6725 70.0893 36.4751 70.0893H59.6623C60.4649 70.0893 61.0892 69.4643 61.0892 68.6607C61 56.25 51.0117 47.1429 38.7047 47.1429ZM51.8143 28.75C51.8143 31.7857 49.3173 34.2857 46.2851 34.2857H45.3041V23.2143H46.2851C49.3173 23.2143 51.8143 25.7143 51.8143 28.75ZM14.8041 34.2857H13.8231C10.7909 34.2857 8.29386 31.7857 8.29386 28.75C8.29386 25.7143 10.7909 23.2143 13.8231 23.2143H14.8041V34.2857ZM14.8041 20.3571H13.8231C13.288 20.3571 12.7529 20.4464 12.2178 20.5357C12.307 10.8036 20.2442 2.85714 30.0541 2.85714C39.864 2.85714 47.8012 10.8036 47.8904 20.5357C47.3553 20.4464 46.8202 20.3571 46.2851 20.3571H45.3041C45.0365 12.2321 38.2588 5.625 30.0541 5.625C21.8494 5.71429 15.1608 12.2321 14.8041 20.3571ZM30.0541 44.1964C23.1871 44.1964 17.6579 38.5714 17.6579 31.7857V20.9821C17.6579 14.1071 23.1871 8.57143 30.0541 8.57143C36.9211 8.57143 42.4503 14.1071 42.4503 20.9821V31.875C42.4503 33.2143 42.1828 34.4643 41.826 35.7143H35.0482C34.424 34.0179 32.9079 32.8571 31.0351 32.8571H29.1623C26.8436 32.8571 24.8816 34.7321 24.8816 37.1429C24.8816 39.4643 26.7544 41.4286 29.1623 41.4286H31.0351C32.9079 41.4286 34.5132 40.2679 35.0482 38.5714H40.4883C38.2588 41.875 34.424 44.1964 30.0541 44.1964Z" fill="white"/>
</g>
<defs>
<clipPath id="clip0">
<rect width="61" height="70" fill="white"/>
</clipPath>
</defs>
</svg>
