<svg width="62" height="68" viewBox="0 0 62 68" fill="none" xmlns="http://www.w3.org/2000/svg">
<g filter="url(#filter0_d)">
<path d="M26 6.88675C29.094 5.10042 32.906 5.10042 36 6.88675L51.9808 16.1132C55.0748 17.8996 56.9808 21.2008 56.9808 24.7735V43.2265C56.9808 46.7992 55.0748 50.1004 51.9808 51.8868L36 61.1132C32.906 62.8996 29.094 62.8996 26 61.1132L10.0192 51.8868C6.92523 50.1004 5.01924 46.7992 5.01924 43.2265V24.7735C5.01924 21.2008 6.92523 17.8996 10.0192 16.1132L26 6.88675Z" fill="white"/>
</g>
<path d="M28.0603 47.599H19.1551C18.9131 47.599 18.6953 47.3979 18.6953 47.1213V45.135C18.6953 44.8835 18.8889 44.6572 19.1551 44.6572H28.0603C28.3023 44.6572 28.5201 44.8584 28.5201 45.135V47.1213C28.5201 47.3727 28.3023 47.599 28.0603 47.599ZM19.6149 46.6436H27.6005V45.6127H19.6149V46.6436V46.6436Z" fill="#02395E"/>
<path d="M27.2862 45.6123H19.9297C19.6877 45.6123 19.47 45.4111 19.47 45.1346V43.8271L18.1874 33.0153C18.0422 31.733 18.3568 30.501 19.0828 29.4952L22.0108 25.6482C22.1318 25.4974 22.3254 25.4219 22.519 25.4974C22.7126 25.5728 22.8336 25.7488 22.8336 25.95V31.1044C22.8336 31.1798 22.8094 31.2804 22.761 31.3307C22.5432 31.7078 22.5432 32.2359 22.761 32.5124L25.5439 36.108L25.5197 32.6382C25.5197 32.085 25.7133 31.557 26.1005 31.1798C26.4876 30.8027 26.9958 30.5764 27.5282 30.6015C28.6171 30.6267 29.5125 31.5821 29.5367 32.7136L29.5851 39.6784C29.5851 40.5081 29.3673 41.3127 28.9559 42.0167L27.7944 43.9277V45.1094C27.746 45.386 27.5524 45.6123 27.2862 45.6123ZM20.3895 44.6568H26.8506V43.8019C26.8506 43.7014 26.8748 43.6259 26.9232 43.5505L28.1574 41.5139C28.4961 40.9607 28.6655 40.3321 28.6655 39.7035L28.6171 32.7387C28.6171 32.1101 28.109 31.5821 27.504 31.557C27.2136 31.557 26.9474 31.6576 26.7538 31.8587C26.5602 32.0599 26.4392 32.3364 26.4392 32.6382V36.3594C26.4392 36.7366 26.2214 37.0634 25.8827 37.164C25.5439 37.2897 25.1567 37.1892 24.9389 36.8874L22.035 33.1159C21.5511 32.5124 21.5995 31.6073 21.8898 30.9787V27.3077L19.8087 30.0735C19.228 30.8781 18.9618 31.8839 19.107 32.9147L20.3895 43.7517C20.3895 43.7768 20.3895 43.8019 20.3895 43.8019V44.6568Z" fill="#02395E"/>
<path d="M39.4824 41.8407H38.1998C37.9578 41.8407 37.74 41.6395 37.74 41.3629C37.74 41.1115 37.9336 40.8852 38.1998 40.8852H39.0226V19.7142H22.8093V25.9499C22.8093 26.2013 22.6157 26.4276 22.3495 26.4276C22.1076 26.4276 21.8898 26.2265 21.8898 25.9499V19.2365C21.8898 18.9851 22.0834 18.7588 22.3495 18.7588H39.4824C39.7244 18.7588 39.9421 18.9599 39.9421 19.2365V41.3629C39.9421 41.6144 39.7244 41.8407 39.4824 41.8407Z" fill="#02395E"/>
<path d="M41.4667 43.953H38.0546C37.8126 43.953 37.5948 43.7518 37.5948 43.4752C37.5948 43.2238 37.7884 42.9975 38.0546 42.9975H41.0069V21.8266H39.4824C39.2404 21.8266 39.0226 21.6254 39.0226 21.3488C39.0226 21.0722 39.2162 20.8711 39.4824 20.8711H41.4667C41.7087 20.8711 41.9265 21.0722 41.9265 21.3488V43.4752C41.9265 43.7267 41.7087 43.953 41.4667 43.953Z" fill="#02395E"/>
<path d="M41.4667 47.599H18.1873C17.9453 47.599 17.7275 47.3979 17.7275 47.1213C17.7275 46.8447 17.9211 46.6436 18.1873 46.6436H41.4667C41.7086 46.6436 41.9264 46.8447 41.9264 47.1213C41.9264 47.3979 41.7086 47.599 41.4667 47.599Z" fill="#02395E"/>
<path d="M34.2556 40.2566C32.3923 40.2566 30.892 38.6725 30.892 36.7616C30.892 34.8255 32.4165 33.2666 34.2556 33.2666C36.0947 33.2666 37.6193 34.8507 37.6193 36.7616C37.6193 38.6976 36.0947 40.2566 34.2556 40.2566ZM34.2556 34.1969C32.9005 34.1969 31.7873 35.3535 31.7873 36.7616C31.7873 38.1696 32.9005 39.3262 34.2556 39.3262C35.6107 39.3262 36.7239 38.1696 36.7239 36.7616C36.6997 35.3535 35.6107 34.1969 34.2556 34.1969Z" fill="#C58511"/>
<path d="M32.2466 43.9529C32.174 43.9529 32.0773 43.9278 32.0047 43.8775C31.8595 43.8021 31.7869 43.6261 31.7869 43.4752V38.9745C31.7869 38.7733 31.8837 38.6225 32.0531 38.547C32.2224 38.4716 32.416 38.4968 32.537 38.6476C32.9968 39.1002 33.6018 39.3516 34.231 39.3516C34.8601 39.3516 35.4651 39.1002 35.9249 38.6476C36.0459 38.5219 36.2395 38.4716 36.4089 38.547C36.5782 38.6225 36.675 38.7985 36.675 38.9745V43.4752C36.675 43.6512 36.5782 43.8021 36.4573 43.8775C36.3121 43.9529 36.1427 43.9781 35.9975 43.8775L34.231 42.8718L32.4644 43.8775C32.3918 43.9278 32.3192 43.9529 32.2466 43.9529ZM34.2552 41.866C34.3278 41.866 34.4003 41.8912 34.4729 41.9163L35.7797 42.6706V39.8797C34.8359 40.3825 33.6502 40.3825 32.7064 39.8797V42.6706L34.0132 41.9163C34.0858 41.8912 34.1584 41.866 34.2552 41.866Z" fill="#C58511"/>
<defs>
<filter id="filter0_d" x="0.0192871" y="0.546875" width="61.9615" height="66.906" filterUnits="userSpaceOnUse" color-interpolation-filters="sRGB">
<feFlood flood-opacity="0" result="BackgroundImageFix"/>
<feColorMatrix in="SourceAlpha" type="matrix" values="0 0 0 0 0 0 0 0 0 0 0 0 0 0 0 0 0 0 127 0" result="hardAlpha"/>
<feOffset/>
<feGaussianBlur stdDeviation="2.5"/>
<feColorMatrix type="matrix" values="0 0 0 0 0 0 0 0 0 0 0 0 0 0 0 0 0 0 0.15 0"/>
<feBlend mode="normal" in2="BackgroundImageFix" result="effect1_dropShadow"/>
<feBlend mode="normal" in="SourceGraphic" in2="effect1_dropShadow" result="shape"/>
</filter>
</defs>
</svg>
