<svg width="62" height="67" viewBox="0 0 62 67" fill="none" xmlns="http://www.w3.org/2000/svg">
<g filter="url(#filter0_d)">
<path d="M26 6.38187C29.094 4.59554 32.906 4.59554 36 6.38187L51.9808 15.6084C55.0748 17.3947 56.9808 20.696 56.9808 24.2686V42.7216C56.9808 46.2943 55.0748 49.5955 51.9808 51.3819L36 60.6084C32.906 62.3947 29.094 62.3947 26 60.6084L10.0192 51.3819C6.92523 49.5955 5.01924 46.2943 5.01924 42.7216V24.2686C5.01924 20.696 6.92523 17.3947 10.0192 15.6084L26 6.38187Z" fill="white"/>
</g>
<path d="M41.5078 48.3334H22.1222C20.9399 48.3334 19.8468 47.8644 19.0214 46.9936C18.1737 46.145 17.7275 45.0062 17.7275 43.7781V18.8131C17.7275 18.5005 17.9729 18.2549 18.2852 18.2549H38.2285C38.3847 18.2549 38.5185 18.3219 38.6078 18.4112C38.7193 18.5228 38.7639 18.6568 38.7639 18.7908V44.3586C38.7639 45.9441 39.9909 47.2169 41.4855 47.2169C42.9801 47.2169 44.2071 45.9217 44.2071 44.3586V36.5878H40.214C39.9016 36.5878 39.6563 36.3422 39.6563 36.0295C39.6563 35.7169 39.9016 35.4713 40.214 35.4713H44.7425C44.8986 35.4713 45.0325 35.5383 45.1217 35.6276C45.2332 35.7393 45.2779 35.8732 45.2779 36.0072V44.3363C45.3225 46.547 43.6048 48.3334 41.5078 48.3334ZM18.8206 19.3491V43.7781C18.8206 44.6936 19.1552 45.5644 19.7799 46.212C20.4045 46.8596 21.2076 47.2169 22.0999 47.2169H38.8532C38.117 46.5023 37.6708 45.4751 37.6708 44.3586V19.3491H18.8206Z" fill="#02395E"/>
<path d="M34.6815 26.4358H21.1629C20.8506 26.4358 20.6052 26.1902 20.6052 25.8776C20.6052 25.565 20.8506 25.3193 21.1629 25.3193H34.6815C34.9939 25.3193 35.2392 25.565 35.2392 25.8776C35.2392 26.1902 34.9939 26.4358 34.6815 26.4358Z" fill="#C58511"/>
<path d="M34.6815 32.7337H21.1629C20.8506 32.7337 20.6052 32.4881 20.6052 32.1754C20.6052 31.8628 20.8506 31.6172 21.1629 31.6172H34.6815C34.9939 31.6172 35.2392 31.8628 35.2392 32.1754C35.2392 32.4881 34.9939 32.7337 34.6815 32.7337Z" fill="#C58511"/>
<path d="M34.6815 39.0091H21.1629C20.8506 39.0091 20.6052 38.7634 20.6052 38.4508C20.6052 38.1382 20.8506 37.8926 21.1629 37.8926H34.6815C34.9939 37.8926 35.2392 38.1382 35.2392 38.4508C35.2392 38.7634 34.9939 39.0091 34.6815 39.0091Z" fill="#C58511"/>
<path d="M42.1547 43.7776C41.8424 43.7776 41.597 43.532 41.597 43.2193V36.0514C41.597 35.7388 41.8424 35.4932 42.1547 35.4932C42.467 35.4932 42.7124 35.7388 42.7124 36.0514V43.2193C42.7124 43.532 42.467 43.7776 42.1547 43.7776Z" fill="#02395E"/>
<defs>
<filter id="filter0_d" x="0.0192261" y="0.0419922" width="61.9615" height="66.906" filterUnits="userSpaceOnUse" color-interpolation-filters="sRGB">
<feFlood flood-opacity="0" result="BackgroundImageFix"/>
<feColorMatrix in="SourceAlpha" type="matrix" values="0 0 0 0 0 0 0 0 0 0 0 0 0 0 0 0 0 0 127 0" result="hardAlpha"/>
<feOffset/>
<feGaussianBlur stdDeviation="2.5"/>
<feColorMatrix type="matrix" values="0 0 0 0 0 0 0 0 0 0 0 0 0 0 0 0 0 0 0.15 0"/>
<feBlend mode="normal" in2="BackgroundImageFix" result="effect1_dropShadow"/>
<feBlend mode="normal" in="SourceGraphic" in2="effect1_dropShadow" result="shape"/>
</filter>
</defs>
</svg>
