<svg width="208" height="208" viewBox="0 0 208 208" fill="none" xmlns="http://www.w3.org/2000/svg">
<g clip-path="url(#clip0)">
<path d="M104 0C161.522 0 208 46.6434 208 104C208 161.521 161.357 208 104 208C46.6436 208 0.000163885 161.521 0.000163885 104C-0.164654 46.8082 46.1491 0.164818 103.506 0C103.671 0 103.835 0 104 0Z" fill="#00E609"/>
<path d="M2.00017 104L2.00016 103.994C1.83853 47.9085 47.2574 2.16318 103.509 2H103.51H103.511H103.511H103.512H103.513H103.514H103.515H103.516H103.517H103.518H103.519H103.52H103.521H103.522H103.523H103.524H103.525H103.526H103.527H103.528H103.529H103.53H103.531H103.532H103.533H103.534H103.535H103.536H103.537H103.538H103.539H103.539H103.54H103.541H103.542H103.543H103.544H103.545H103.546H103.547H103.548H103.549H103.55H103.551H103.552H103.553H103.554H103.555H103.556H103.557H103.558H103.559H103.56H103.561H103.562H103.563H103.564H103.565H103.566H103.567H103.568H103.568H103.569H103.57H103.571H103.572H103.573H103.574H103.575H103.576H103.577H103.578H103.579H103.58H103.581H103.582H103.583H103.584H103.585H103.586H103.587H103.588H103.589H103.59H103.591H103.592H103.593H103.594H103.595H103.596H103.596H103.597H103.598H103.599H103.6H103.601H103.602H103.603H103.604H103.605H103.606H103.607H103.608H103.609H103.61H103.611H103.612H103.613H103.614H103.615H103.616H103.617H103.618H103.619H103.62H103.621H103.622H103.623H103.624H103.624H103.625H103.626H103.627H103.628H103.629H103.63H103.631H103.632H103.633H103.634H103.635H103.636H103.637H103.638H103.639H103.64H103.641H103.642H103.643H103.644H103.645H103.646H103.647H103.648H103.649H103.65H103.651H103.652H103.652H103.653H103.654H103.655H103.656H103.657H103.658H103.659H103.66H103.661H103.662H103.663H103.664H103.665H103.666H103.667H103.668H103.669H103.67H103.671H103.672H103.673H103.674H103.675H103.676H103.677H103.678H103.679H103.68H103.68H103.681H103.682H103.683H103.684H103.685H103.686H103.687H103.688H103.689H103.69H103.691H103.692H103.693H103.694H103.695H103.696H103.697H103.698H103.699H103.7H103.701H103.702H103.703H103.704H103.705H103.706H103.707H103.708H103.708H103.709H103.71H103.711H103.712H103.713H103.714H103.715H103.716H103.717H103.718H103.719H103.72H103.721H103.722H103.723H103.724H103.725H103.726H103.727H103.728H103.729H103.73H103.731H103.732H103.733H103.734H103.735H103.736H103.737H103.737H103.738H103.739H103.74H103.741H103.742H103.743H103.744H103.745H103.746H103.747H103.748H103.749H103.75H103.751H103.752H103.753H103.754H103.755H103.756H103.757H103.758H103.759H103.76H103.761H103.762H103.763H103.764H103.765H103.765H103.766H103.767H103.768H103.769H103.77H103.771H103.772H103.773H103.774H103.775H103.776H103.777H103.778H103.779H103.78H103.781H103.782H103.783H103.784H103.785H103.786H103.787H103.788H103.789H103.79H103.791H103.792H103.793H103.793H103.794H103.795H103.796H103.797H103.798H103.799H103.8H103.801H103.802H103.803H103.804H103.805H103.806H103.807H103.808H103.809H103.81H103.811H103.812H103.813H103.814H103.815H103.816H103.817H103.818H103.819H103.82H103.821H103.821H103.822H103.823H103.824H103.825H103.826H103.827H103.828H103.829H103.83H103.831H103.832H103.833H103.834H103.835H103.836H103.837H103.838H103.839H103.84H103.841H103.842H103.843H103.844H103.845H103.846H103.847H103.848H103.849H103.849H103.85H103.851H103.852H103.853H103.854H103.855H103.856H103.857H103.858H103.859H103.86H103.861H103.862H103.863H103.864H103.865H103.866H103.867H103.868H103.869H103.87H103.871H103.872H103.873H103.874H103.875H103.876H103.877H103.877H103.878H103.879H103.88H103.881H103.882H103.883H103.884H103.885H103.886H103.887H103.888H103.889H103.89H103.891H103.892H103.893H103.894H103.895H103.896H103.897H103.898H103.899H103.9H103.901H103.902H103.903H103.904H103.905H103.906H103.906H103.907H103.908H103.909H103.91H103.911H103.912H103.913H103.914H103.915H103.916H103.917H103.918H103.919H103.92H103.921H103.922H103.923H103.924H103.925H103.926H103.927H103.928H103.929H103.93H103.931H103.932H103.933H103.934H103.934H103.935H103.936H103.937H103.938H103.939H103.94H103.941H103.942H103.943H103.944H103.945H103.946H103.947H103.948H103.949H103.95H103.951H103.952H103.953H103.954H103.955H103.956H103.957H103.958H103.959H103.96H103.961H103.962H103.962H103.963H103.964H103.965H103.966H103.967H103.968H103.969H103.97H103.971H103.972H103.973H103.974H103.975H103.976H103.977H103.978H103.979H103.98H103.981H103.982H103.983H103.984H103.985H103.986H103.987H103.988H103.989H103.99H103.99H103.991H103.992H103.993H103.994H103.995H103.996H103.997H103.998H103.999H104C160.415 2 206 47.7459 206 104C206 160.415 160.254 206 104 206C47.7461 206 2.00016 160.415 2.00017 104Z" stroke="#00FF0A" stroke-opacity="0.4" stroke-width="4"/>
<path d="M94.4403 142.57C90.8143 146.196 84.716 146.36 81.0901 142.57L54.884 116.528C50.2691 111.913 50.2691 104.332 54.884 99.7169C59.4989 95.2668 66.9157 95.2668 71.5306 99.7169L87.8476 115.704L136.634 66.9182C141.249 62.3033 148.665 62.3033 153.28 66.9182C157.895 71.5331 158.06 79.1147 153.28 83.7296L94.4403 142.57Z" fill="white"/>
</g>
<defs>
<clipPath id="clip0">
<rect width="208" height="208" fill="white"/>
</clipPath>
</defs>
</svg>
