<svg width="62" height="68" viewBox="0 0 62 68" fill="none" xmlns="http://www.w3.org/2000/svg">
<g filter="url(#filter0_d)">
<path d="M26 6.88675C29.094 5.10042 32.906 5.10042 36 6.88675L51.9808 16.1132C55.0748 17.8996 56.9808 21.2008 56.9808 24.7735V43.2265C56.9808 46.7992 55.0748 50.1004 51.9808 51.8868L36 61.1132C32.906 62.8996 29.094 62.8996 26 61.1132L10.0192 51.8868C6.92523 50.1004 5.01924 46.7992 5.01924 43.2265V24.7735C5.01924 21.2008 6.92523 17.8996 10.0192 16.1132L26 6.88675Z" fill="white"/>
</g>
<path d="M31.0111 44.6309C24.6094 44.6309 19.408 39.4295 19.408 33.0277C19.408 26.626 24.6094 21.4246 31.0111 21.4246C37.4129 21.4246 42.6143 26.626 42.6143 33.0277C42.6143 39.4295 37.4129 44.6309 31.0111 44.6309ZM31.0111 19.7441C23.7292 19.7441 17.7275 25.7458 17.7275 33.0277C17.7275 40.3097 23.7292 46.3113 31.0111 46.3113C38.2931 46.3113 44.2947 40.3097 44.2947 33.0277C44.2947 25.7458 38.3731 19.7441 31.0111 19.7441Z" fill="#02395E"/>
<path d="M31.0111 32.2277C29.6507 32.2277 28.5304 31.4275 28.5304 30.5473C28.5304 29.667 29.6507 28.8668 31.0111 28.8668C31.8113 28.8668 32.4515 29.1069 32.9316 29.507C33.2517 29.8271 33.8119 29.7471 34.1319 29.427C34.452 29.1069 34.372 28.5467 34.0519 28.2267C33.4918 27.7465 32.6916 27.3464 31.8113 27.1864V26.3862C31.8113 25.906 31.4112 25.5859 31.0111 25.5859C30.531 25.5859 30.2109 25.986 30.2109 26.3862V27.2664C28.2904 27.5865 26.85 28.9468 26.85 30.5473C26.85 32.3878 28.6905 33.9082 31.0111 33.9082C32.3715 33.9082 33.4918 34.7084 33.4918 35.5886C33.4918 36.4689 32.3715 37.2691 31.0111 37.2691C30.2109 37.2691 29.5707 37.029 29.0906 36.6289C28.7705 36.3088 28.2103 36.3889 27.8903 36.7089C27.5702 37.029 27.6502 37.5892 27.9703 37.9093C28.5304 38.3894 29.3306 38.7895 30.2109 38.9496V39.8298C30.2109 40.3099 30.611 40.63 31.0111 40.63C31.4912 40.63 31.8113 40.2299 31.8113 39.8298V38.9496C33.7318 38.6295 35.1722 37.2691 35.1722 35.6687C35.1722 33.6681 33.3317 32.2277 31.0111 32.2277Z" fill="#C58511"/>
<defs>
<filter id="filter0_d" x="0.0192871" y="0.546875" width="61.9615" height="66.906" filterUnits="userSpaceOnUse" color-interpolation-filters="sRGB">
<feFlood flood-opacity="0" result="BackgroundImageFix"/>
<feColorMatrix in="SourceAlpha" type="matrix" values="0 0 0 0 0 0 0 0 0 0 0 0 0 0 0 0 0 0 127 0" result="hardAlpha"/>
<feOffset/>
<feGaussianBlur stdDeviation="2.5"/>
<feColorMatrix type="matrix" values="0 0 0 0 0 0 0 0 0 0 0 0 0 0 0 0 0 0 0.15 0"/>
<feBlend mode="normal" in2="BackgroundImageFix" result="effect1_dropShadow"/>
<feBlend mode="normal" in="SourceGraphic" in2="effect1_dropShadow" result="shape"/>
</filter>
</defs>
</svg>
