<svg width="62" height="68" viewBox="0 0 62 68" fill="none" xmlns="http://www.w3.org/2000/svg">
<g filter="url(#filter0_d)">
<path d="M26 6.88675C29.094 5.10042 32.906 5.10042 36 6.88675L51.9808 16.1132C55.0748 17.8996 56.9808 21.2008 56.9808 24.7735V43.2265C56.9808 46.7992 55.0748 50.1004 51.9808 51.8868L36 61.1132C32.906 62.8996 29.094 62.8996 26 61.1132L10.0192 51.8868C6.92523 50.1004 5.01924 46.7992 5.01924 43.2265V24.7735C5.01924 21.2008 6.92523 17.8996 10.0192 16.1132L26 6.88675Z" fill="white"/>
</g>
<path d="M23.0271 32.4078C21.6676 31.8359 20.172 31.8359 18.7785 32.3742C17.4189 32.9124 16.3313 33.9552 15.7534 35.3007C15.1756 36.6799 15.1756 38.16 15.7195 39.5055C15.8554 39.8756 16.0593 40.2119 16.2633 40.5147C16.4672 40.8174 16.7051 41.0529 16.9771 41.2884C17.4869 41.793 18.0307 42.1966 18.7105 42.4994C20.1041 43.1049 21.6336 43.0712 22.9592 42.533C24.2847 41.9948 25.3724 40.9856 25.9842 39.6064C26.562 38.2609 26.562 36.7808 26.0182 35.4016C25.4404 34.0561 24.3867 32.9797 23.0271 32.4078ZM24.8965 39.1691C23.9448 41.3893 21.3617 42.3984 19.1524 41.4566C18.0647 40.9856 17.249 40.1447 16.8071 39.0682C16.3652 37.9918 16.3652 36.8145 16.8411 35.738C17.3169 34.6616 18.1667 33.8543 19.2543 33.417C20.342 32.9797 21.5316 32.9797 22.6193 33.4506C23.7069 33.9215 24.5227 34.7625 24.9645 35.8389C25.3724 36.9154 25.3724 38.0927 24.8965 39.1691Z" fill="#C58511"/>
<path d="M50.6603 30.2554C50.3884 28.6071 49.6406 27.0597 48.417 25.8823C46.4796 23.9986 43.7605 23.1912 41.1433 23.7295C41.0074 23.7631 40.8374 23.7295 40.7015 23.6285L38.7641 22.2494C37.6084 21.3747 36.011 21.6439 35.1612 22.7539L35.0593 22.8885C34.7194 22.7203 34.3115 22.7203 33.9376 22.8885C33.6997 22.9894 33.4957 23.1576 33.3598 23.3594L33.0199 23.8304L29.0772 20.9711C28.4314 20.5001 27.4797 20.7356 27.1398 21.4757L25.1684 25.916L24.5906 25.6805C24.0128 25.445 23.265 25.6469 22.8911 26.1514L22.7552 26.1178C21.4636 25.5796 19.968 26.1851 19.4242 27.4634L18.5065 29.6499C18.4385 29.8181 18.3366 29.919 18.1666 29.9863C16.0593 30.7263 14.3258 32.341 13.4421 34.393C12.5584 36.4786 12.5924 38.8669 13.5781 40.9189C13.884 41.558 14.2579 42.1635 14.7337 42.6681C14.7677 42.7017 14.8017 42.7354 14.8357 42.769C15.8214 43.8791 17.1469 44.7201 18.6085 45.1574C20.3759 45.6956 22.2453 45.561 23.9108 44.8883C25.4743 44.2828 26.8339 43.1727 27.7176 41.7262C29.1451 39.4388 29.3151 36.6467 28.2274 34.2248C28.1594 34.0902 28.1594 33.922 28.2274 33.7538L29.1451 31.6009C29.689 30.3227 29.0772 28.8426 27.7856 28.3043L27.6156 28.2371C27.6836 27.867 27.6156 27.4634 27.3777 27.1606C27.2417 26.9588 27.0038 26.7906 26.7659 26.6897L26.2221 26.4542L27.8875 22.5857C28.0575 22.2157 28.4993 22.0812 28.8392 22.3166L32.3401 24.7723L31.9662 25.2768C31.5924 25.7814 31.6603 26.5215 32.0682 27.0261L31.9662 27.127C31.1505 28.2707 31.3884 29.8181 32.544 30.659L34.4814 32.0382C34.6174 32.1392 34.7194 32.2737 34.7194 32.4083C34.9913 34.6284 36.1809 36.6468 37.9823 37.9587C39.8517 39.3042 42.197 39.7752 44.4403 39.3042C45.154 39.1697 45.7998 38.9005 46.4456 38.5978C46.4796 38.5978 46.5136 38.5642 46.5476 38.5305C47.8732 37.8241 48.9948 36.7477 49.7766 35.4021C50.6603 33.8211 50.9322 32.0046 50.6603 30.2554ZM27.2077 29.2799V29.2462L27.3437 29.3135C28.0575 29.6162 28.3974 30.4236 28.0915 31.13L27.1738 33.2829C26.9698 33.7202 26.9698 34.2248 27.1738 34.6621C28.1255 36.7477 27.9555 39.136 26.7319 41.1207C25.1344 43.6773 21.8374 44.9219 18.9144 44.0473C18.0307 43.7782 17.2149 43.3745 16.5351 42.8026C16.2972 42.6345 16.1273 42.399 15.9233 42.1971C15.3795 41.6589 14.9376 41.0534 14.5977 40.3807C13.748 38.5978 13.714 36.5795 14.4958 34.7966C15.2096 33.1147 16.5691 31.8028 18.2686 31.13C18.3706 31.0964 18.4385 31.0627 18.5405 31.0291C18.9824 30.8609 19.3562 30.5245 19.5262 30.0872L20.4439 27.9007C20.7498 27.1943 21.5655 26.8579 22.2793 27.1606C22.2793 27.1606 22.4153 27.2279 22.3813 27.2615C22.2453 27.5979 22.2453 27.9679 22.3813 28.338C22.5172 28.708 22.7891 28.9435 23.129 29.1117L23.7069 29.3471L23.129 30.6927C22.9931 30.9954 23.129 31.2982 23.4349 31.4327C23.5709 31.5 23.7408 31.5 23.8768 31.4327C24.0128 31.3655 24.1147 31.2645 24.1827 31.13L24.7605 29.7844L25.3383 30.0199C25.4403 30.0535 25.5083 30.0872 25.6103 30.0872H25.6442C25.9162 30.1208 26.1541 30.1208 26.426 30.0199C26.7999 29.8854 27.0718 29.6162 27.2077 29.2799ZM26.358 27.6988C26.426 27.7325 26.494 27.7998 26.494 27.8334C26.494 27.867 26.528 27.9343 26.494 28.0352L26.392 28.2707L26.1541 28.8089C26.0861 28.9435 25.9501 29.0107 25.8142 28.9435L23.6049 28.0016C23.5369 27.9679 23.4689 27.9007 23.4689 27.867C23.4689 27.8334 23.4349 27.7661 23.4689 27.6652L23.7069 27.0933L23.8088 26.8579C23.8768 26.7233 24.0128 26.656 24.1487 26.7233L26.358 27.6988ZM32.9179 25.916L34.3115 23.9986C34.3795 23.9313 34.4474 23.8977 34.4814 23.8977C34.5154 23.8977 34.5834 23.8977 34.6854 23.9313L34.9233 24.0995L35.4331 24.4695C35.5351 24.5368 35.5691 24.705 35.5011 24.8059L34.1076 26.7233C34.0396 26.7906 33.9716 26.8242 33.9376 26.8242C33.9036 26.8242 33.8356 26.8242 33.7337 26.7906L33.1898 26.4542L32.9519 26.286C32.85 26.1851 32.816 26.0505 32.9179 25.916ZM48.7569 34.8639C48.315 35.6712 47.6693 36.4113 46.9215 36.9495C46.6836 37.1177 46.4116 37.2522 46.1397 37.4204C45.9018 37.555 45.6299 37.7232 45.358 37.8241C44.9841 37.9923 44.5762 38.0932 44.1684 38.1941C42.231 38.5978 40.2256 38.1941 38.6281 37.0504C37.1326 35.974 36.1469 34.3593 35.875 32.5765C35.875 32.4755 35.841 32.3746 35.841 32.3073C35.773 31.8364 35.5351 31.4327 35.1272 31.13L33.1898 29.7508C32.578 29.3135 32.4081 28.4389 32.8839 27.7998C32.8839 27.7998 32.9519 27.6988 32.9859 27.6988C33.2918 27.9007 33.6657 28.0016 34.0396 27.9343C34.4135 27.867 34.7194 27.6652 34.9573 27.3624L35.3312 26.8579L36.5208 27.6988C36.7927 27.867 37.1326 27.8334 37.3365 27.5643C37.4385 27.4297 37.4725 27.2952 37.4385 27.127C37.4045 26.9924 37.3365 26.8579 37.2006 26.7569L36.011 25.916L36.3848 25.4114C36.4528 25.3441 36.4868 25.2432 36.5208 25.1759V25.1423C36.6228 24.9068 36.6567 24.6377 36.6228 24.3686C36.5548 23.9986 36.3508 23.6958 36.0449 23.4603L36.011 23.4267H36.1129C36.5548 22.8212 37.4385 22.653 38.0843 23.124L40.0217 24.5031C40.4295 24.8059 40.9054 24.9068 41.3812 24.8059C43.6245 24.3686 45.9698 25.0414 47.6353 26.656C49.7766 28.7753 50.2524 32.2401 48.7569 34.8639Z" fill="#02395E"/>
<path d="M45.9697 27.0593C44.7801 26.1847 43.3186 25.8483 41.857 26.0838C40.3955 26.3192 39.1039 27.0929 38.2542 28.2703C37.3704 29.4476 37.0306 30.8941 37.2685 32.3405C37.5064 33.787 38.2882 35.0652 39.4778 35.9062C40.6674 36.7808 42.1289 37.1172 43.5905 36.8817C43.9983 36.8145 44.3722 36.7135 44.7461 36.579C45.086 36.4444 45.3919 36.2426 45.7318 36.0071C45.9017 35.9062 46.0377 35.8053 46.2076 35.7044C46.5815 35.4353 46.9214 35.0652 47.1933 34.6952C48.0771 33.4842 48.383 32.0041 48.179 30.625C47.9751 29.2458 47.1933 27.9675 45.9697 27.0593ZM46.2756 34.0561C45.5958 34.998 44.5762 35.6035 43.4205 35.8053C42.2649 35.9735 41.1093 35.7044 40.1576 35.0316C39.2059 34.3588 38.5941 33.3497 38.3901 32.206C38.2202 31.0623 38.4921 29.9186 39.1719 28.9767C39.8517 28.0348 40.8713 27.4293 42.027 27.2275C43.1826 27.0593 44.3382 27.3284 45.2899 28.0012C47.2613 29.3803 47.7032 32.1051 46.2756 34.0561Z" fill="#C58511"/>
<defs>
<filter id="filter0_d" x="0.0192261" y="0.546875" width="61.9615" height="66.906" filterUnits="userSpaceOnUse" color-interpolation-filters="sRGB">
<feFlood flood-opacity="0" result="BackgroundImageFix"/>
<feColorMatrix in="SourceAlpha" type="matrix" values="0 0 0 0 0 0 0 0 0 0 0 0 0 0 0 0 0 0 127 0" result="hardAlpha"/>
<feOffset/>
<feGaussianBlur stdDeviation="2.5"/>
<feColorMatrix type="matrix" values="0 0 0 0 0 0 0 0 0 0 0 0 0 0 0 0 0 0 0.15 0"/>
<feBlend mode="normal" in2="BackgroundImageFix" result="effect1_dropShadow"/>
<feBlend mode="normal" in="SourceGraphic" in2="effect1_dropShadow" result="shape"/>
</filter>
</defs>
</svg>
